<?xml version="1.0" encoding="utf-8"?>
<!-- Generator: Adobe Illustrator 21.0.0, SVG Export Plug-In . SVG Version: 6.00 Build 0)  -->
<svg version="1.1" id="Layer_1" xmlns="http://www.w3.org/2000/svg" xmlns:xlink="http://www.w3.org/1999/xlink" x="0px" y="0px"
	 viewBox="0 0 40 37.3" style="enable-background:new 0 0 40 37.3;" xml:space="preserve">
<style type="text/css">
	.st0{fill:#9BD4DC;}
</style>
<g id="ytzjZB.tif">
	<g>
		<path class="st0" d="M38,18.5c0,4.5,0,9,0,13.5c-0.3,0.4-0.7,0.5-0.9,0.2C37,32,37,31.8,37,31.6c0-2,0-3.9,0-5.9
			c0-2.3,0-4.5,0-6.8c0-0.4-0.2-0.8-0.5-0.8c-0.4,0.1-0.7,0.3-1,0.5c0,0,0,0.1,0,0.1c-0.1,0.2-0.2,0.4-0.3,0.5c-0.2,0.1-0.4,0-0.6,0
			c0,0.1,0,0.2,0.1,0.3c0.7,2.4,1.1,4.9,1.2,7.4c0,0.8-0.1,1-1,1c-0.5,0-1,0-1.6,0c0,0.2,0,0.3,0,0.4c0,1.1-0.1,2.1-0.1,3.2
			c0,0.7-0.5,1.2-1.2,1.2c-0.7,0-1.1-0.5-1.2-1.2c-0.1-1-0.1-2-0.1-3c0-0.2,0-0.4-0.1-0.6c-0.3-0.1-0.4,0-0.4,0.3
			c0,0.7-0.1,1.4-0.1,2.1c0,0.4,0,0.7-0.1,1.1c0,0.7-0.5,1.2-1.2,1.2c-0.6,0-1.1-0.5-1.2-1.2c-0.1-1.1-0.1-2.2-0.1-3.2
			c0-0.3-0.1-0.4-0.4-0.4c-0.5,0-0.9,0-1.4,0c-0.7,0-0.9-0.2-0.8-0.9c0-2.1,0.4-4.2,0.9-6.3c0.2-0.8,0.5-1.6,0.6-2.4
			c0.2-1.3,0.4-2.6,0.6-3.9c0.1-0.6,0.2-1.1,0.2-1.7c-0.1,0-0.2,0.1-0.2,0.2C27,13,27,13.2,26.9,13.3c-0.6,1.2-0.7,2.4-0.7,3.7
			c0,0.6-0.1,1-0.6,1.4c-0.6,0.7-1.3,0.8-2.2,0.6c-0.4-0.1-0.7-0.2-1.2-0.3c0,0.8,0.1,1.5,0.1,2.3c0,1.1,0.3,2.1-0.2,3.1
			c0,0.1,0,0.1,0,0.2c-0.1,2.4-0.2,4.9-0.4,7.3c0,0.5-0.3,0.9-0.8,0.9c-0.5,0-0.8-0.4-0.8-0.9c-0.1-1-0.1-2.1-0.2-3.1
			c0-0.7-0.1-1.4-0.1-2.2c-0.1,1.2-0.2,2.4-0.2,3.6c0,0.6-0.1,1.2-0.1,1.8c0,0.4-0.4,0.7-0.8,0.7c-0.4,0-0.7-0.3-0.8-0.7
			c0-0.2,0-0.5-0.1-0.7c-0.1-2.2-0.2-4.4-0.3-6.6c0-0.2-0.1-0.4-0.1-0.5c-0.1-0.4-0.2-0.8-0.2-1.3c0-1.1,0.1-2.2,0.2-3.3
			c0-0.2,0-0.4,0-0.7c-0.3,0.1-0.5,0.2-0.7,0.2c-0.4,0.1-0.9,0.2-1.4,0.2c-0.5,0-0.9-0.4-1.3-0.6c-0.6-0.4-0.7-0.9-0.7-1.5
			c0-1-0.1-2-0.4-3c-0.2-0.5-0.4-0.9-0.6-1.3c0,0-0.1,0-0.1,0c0.2,1.6,0.4,3.1,0.7,4.7c0.1,0.9,0.2,1.8-0.2,2.6
			c-0.3,0.6-0.4,1.2-0.4,1.9c-0.1,3.2-0.3,6.3-0.4,9.5c0,0.2,0,0.4-0.1,0.5c-0.2,0.5-0.7,0.8-1.2,0.7c-0.5-0.1-1-0.5-1-1
			c-0.1-1.4-0.1-2.8-0.2-4.2c-0.1-1.2-0.1-2.4-0.2-3.6c0,0.1,0,0.1,0,0.2c-0.1,2.4-0.2,4.9-0.4,7.3c0,0.7-0.5,1.2-1.2,1.2
			c-0.7,0-1.1-0.5-1.2-1.2c-0.2-3.5-0.3-7-0.5-10.4c0-0.1,0-0.2-0.1-0.3c-0.2-0.5-0.4-1-0.7-1.5c-0.5,0.3-0.7,0.2-0.9-0.6
			c-0.4-0.1-0.8-0.2-1.2-0.4C3,18.3,3,18.7,3,19c0,4.2,0,8.4,0,12.6c0,0.3,0,0.6-0.4,0.7c-0.3,0.1-0.5-0.1-0.7-0.3c0-4.5,0-9,0-13.5
			c0.2-0.3,0.3-0.7,0.5-0.9c0.6-0.3,0.6-0.8,0.5-1.4c0-0.2,0-0.3,0-0.5c0-1.8,0.4-3.5,1.5-5c0.5-0.7,1.2-1.3,2-1.7
			C6.5,9,6.5,9,6.6,9c1.6,1.5,3.8,1.6,5.4,0.1c0.2-0.1,0.3-0.1,0.4,0c1.3,0.8,2.1,1.9,2.6,3.2c0.5,1.4,0.7,2.9,0.5,4.5
			c0,0.3-0.1,0.6-0.1,1c0.3-0.1,0.6-0.1,0.8-0.3c0.7-0.4,1.5-0.9,2.2-1.4c0.9-0.6,1.9-0.7,2.9-0.1c0.7,0.5,1.5,1,2.2,1.4
			c0.2,0.1,0.4,0.2,0.7,0.3c0-0.1,0-0.2,0-0.3c-0.1-1.3-0.2-2.6,0.1-3.9c0.4-1.9,1.3-3.4,2.9-4.4c0.2-0.1,0.3-0.1,0.5,0
			c1.5,1.4,3.8,1.4,5.3,0c0.2-0.2,0.3-0.2,0.5,0c1.9,1.2,2.8,3.1,3.1,5.2c0.1,0.9,0,1.8,0,2.7C37.4,17.2,37.8,17.8,38,18.5z
			 M34.4,18.7c0.3-0.6,0.2-1.1,0.2-1.6c0-1.1-0.1-2.1-0.4-3.1c-0.2-0.4-0.4-0.8-0.5-1.2c0,0-0.1,0-0.1,0
			C33.8,14.8,34.1,16.7,34.4,18.7z M5.5,18c0.3-1.8,0.5-3.5,0.7-5.2c0,0-0.1,0-0.1-0.1c0,0,0,0.1,0,0.1C6,13,5.9,13.1,5.9,13.3
			c-0.6,1.2-0.7,2.5-0.7,3.8C5.1,17.5,5.2,17.8,5.5,18z"/>
		<path class="st0" d="M30.4,9.8c-1.8,0-3.3-1.5-3.3-3.3c0-1.8,1.5-3.4,3.3-3.4c1.9,0,3.4,1.5,3.4,3.4C33.7,8.3,32.2,9.8,30.4,9.8z"
			/>
		<path class="st0" d="M9.3,9.8C7.4,9.8,6,8.3,6,6.4c0-1.8,1.5-3.3,3.3-3.3c1.9,0,3.4,1.5,3.4,3.4C12.7,8.3,11.1,9.8,9.3,9.8z"/>
		<path class="st0" d="M17.6,13c0-1.3,1.1-2.3,2.3-2.3c1.3,0,2.3,1,2.3,2.3c0,1.3-1.1,2.3-2.3,2.3C18.6,15.3,17.6,14.3,17.6,13z"/>
	</g>
</g>
</svg>
