<?xml version="1.0" encoding="utf-8"?>
<!-- Generator: Adobe Illustrator 21.0.0, SVG Export Plug-In . SVG Version: 6.00 Build 0)  -->
<svg version="1.1" id="Layer_1" xmlns="http://www.w3.org/2000/svg" xmlns:xlink="http://www.w3.org/1999/xlink" x="0px" y="0px"
	 viewBox="0 0 40 37.3" style="enable-background:new 0 0 40 37.3;" xml:space="preserve">
<style type="text/css">
	.st0{fill:#9BD4DC;}
</style>
<g>
	<g>
		<path class="st0" d="M11.4,14.4c2.6,0,4.7-2.1,4.7-4.7c0-1.6,0.6-3.1-0.7-3.9c-0.8-0.5-4-0.8-5-0.8C9.3,5,7.8,5.9,6.9,6.6
			c-1,0.9-0.2,1.6-0.2,3.1C6.7,12.3,8.8,14.4,11.4,14.4z M8.1,9.2C9,9.1,9.6,9.4,9.6,9.4L11,8.7c0,0-0.7,1.1-0.1,0.7
			c1.5-0.5,3.1-0.3,3.9-0.1c0,0.2,0.1,0.4,0.1,0.6c0,1.9-1.5,3.5-3.4,3.5c-1.9,0-3.4-1.6-3.4-3.5C8.1,9.6,8.1,9.4,8.1,9.2z"/>
		<path class="st0" d="M34.4,9c0-0.3,0-0.5-0.1-0.8c-0.2-1.6-1.7-5-5.9-4.9c-3.6,0.1-4.4,2.8-4.6,4.5c-0.1,0.4-0.2,0.8-0.2,1.3
			c-4.7,0.8-4.2,5.6-1.3,5.7c-0.3-2.5,0.9-4,1.4-4.5c0.4,2.6,2.7,4.6,5.4,4.6c2.6,0,4.7-1.8,5.3-4.2c0.4,0.8,1.2,2.4,1,4.1
			C39.8,14.8,37.6,9.6,34.4,9z M28.9,13.4c-2.1,0-3.9-1.7-3.9-3.8c0.8-0.3,1.4-1.6,1.4-1.6s0.5,0.2,0.5,1.7C27.6,9.9,29,7.2,29,7.2
			v2.1c0.9,0.2,3.7-0.1,3.7-0.1l0.1,0.1c0,0,0,0.1,0,0.1C32.9,11.6,31.1,13.4,28.9,13.4z"/>
		<polygon class="st0" points="30.1,15.1 27.8,15.1 25.8,15.1 20.2,21.9 14.7,15.2 8.5,15.2 2,22.3 3.4,23.7 8,19.7 8,27.4 9,27.4 
			9,33.3 8.4,33.3 8.4,34 11.1,34 11.1,33.3 11.1,27.4 12.1,27.4 12.1,33.3 12.1,34 14.8,34 14.8,33.3 14.2,33.3 14.2,27.4 
			15.3,27.4 15.3,19.9 19.1,23.7 20.6,23.3 21.4,23.5 25.6,18.7 25.9,20.6 22,27.4 26.5,27.4 26.5,33.2 25.9,33.2 25.9,33.9 
			28.6,33.9 28.6,33.2 28.6,33.2 28.6,27.4 29.6,27.4 29.6,33.2 29.6,33.9 32.3,33.9 32.3,33.2 31.7,33.2 31.7,27.4 35.2,27.4 
			31.8,20.6 32,18.3 35.3,22.7 37.4,22.1 32.2,15.1 		"/>
	</g>
</g>
</svg>
