<?xml version="1.0" encoding="utf-8"?>
<!-- Generator: Adobe Illustrator 21.0.0, SVG Export Plug-In . SVG Version: 6.00 Build 0)  -->
<svg version="1.1" id="Layer_1" xmlns="http://www.w3.org/2000/svg" xmlns:xlink="http://www.w3.org/1999/xlink" x="0px" y="0px"
	 viewBox="0 0 40 37.3" style="enable-background:new 0 0 40 37.3;" xml:space="preserve">
<style type="text/css">
	.st0{fill:#2E2D2C;}
</style>
<g>
	<g>
		<path d="M19.3,3.3c-3,0-5.4,2.5-5.4,5.4s2.4,5.4,5.4,5.4s5.4-2.4,5.4-5.4S22.3,3.3,19.3,3.3z"/>
	</g>
</g>
<g>
	<g>
		<path class="st0" d="M19.4,15.6c-0.8,0-1.6-0.2-2.4-0.5c-0.8-0.3-1.4-0.8-2-1.3c-0.6-0.6-1-1.2-1.3-2c-0.3-0.8-0.5-1.5-0.5-2.4
			s0.2-1.6,0.5-2.4c0.3-0.7,0.8-1.4,1.3-1.9c0.6-0.6,1.2-1,2-1.3s1.5-0.5,2.4-0.5s1.6,0.2,2.4,0.5s1.4,0.8,1.9,1.3
			c0.6,0.6,1,1.2,1.3,1.9s0.5,1.5,0.5,2.4s-0.2,1.6-0.5,2.4c-0.3,0.8-0.8,1.4-1.3,2c-0.6,0.6-1.2,1-1.9,1.3
			C21.1,15.4,20.3,15.6,19.4,15.6z M24.4,16.9c1.1,0,2.1,0.2,3,0.7c0.8,0.4,1.5,1,2.1,1.7c0.5,0.7,0.9,1.5,1.2,2.5
			c0.3,0.9,0.4,1.9,0.4,2.8v8.9c0,0.3-0.2,0.5-0.5,0.5h-3.2c-0.3,0-0.5-0.2-0.5-0.5v-7.8c0-0.2-0.1-0.3-0.2-0.5
			C26.4,25,26.2,25,26,25c-0.3,0-0.5,0.1-0.6,0.3c-0.1,0.2-0.2,0.3-0.2,0.5v7.8c0,0.2-0.1,0.3-0.2,0.4c-0.1,0.1-0.2,0.1-0.4,0.1
			H13.9c-0.3,0-0.5-0.2-0.5-0.5v-7.8c0-0.2,0-0.3-0.1-0.5C13.1,25,12.9,25,12.6,25S12.1,25,12,25.2c-0.1,0.2-0.1,0.3-0.1,0.5v7.8
			c0,0.2-0.1,0.3-0.2,0.4c-0.1,0.1-0.2,0.1-0.4,0.1H8.2c-0.4,0-0.6-0.2-0.6-0.5v-8.9c0-1,0.1-1.9,0.4-2.8c0.3-0.9,0.7-1.7,1.2-2.5
			s1.2-1.3,2.1-1.7c0.8-0.4,1.8-0.7,3-0.7h5.2H24.4L24.4,16.9z"/>
	</g>
</g>
</svg>
