<?xml version="1.0" encoding="utf-8"?>
<!-- Generator: Adobe Illustrator 21.0.0, SVG Export Plug-In . SVG Version: 6.00 Build 0)  -->
<svg version="1.1" id="Layer_1" xmlns="http://www.w3.org/2000/svg" xmlns:xlink="http://www.w3.org/1999/xlink" x="0px" y="0px"
	 viewBox="0 0 40 37.3" style="enable-background:new 0 0 40 37.3;" xml:space="preserve">
<style type="text/css">
	.st0{fill:#2E2D2C;}
</style>
<g>
	<path class="st0" d="M5.5,12.3c0-2.2,1.8-4,4-4c2.2,0,4,1.8,4,4c0,2.2-1.8,4-4,4C7.3,16.4,5.5,14.6,5.5,12.3z M23.3,16.1
		c-0.6-0.4-1.5-0.2-1.9,0.5L18.8,21L15,18.9c-1.7-1.1-2.5-1.6-5.1-1.6H9.5H9.1C4.2,17.9,5,21.8,5,21.8L5.6,34l8.7-0.1L14,21.8
		l4.6,2.2c0.2,0.1,0.4,0.2,0.7,0.2c0.5,0,0.9-0.2,1.2-0.7l3.4-5.5C24.2,17.4,24,16.5,23.3,16.1z M12.4,15.7c-0.3,0.3-0.6,0.5-1,0.7
		V17c0.4,0,0.7,0.1,1,0.2V15.7z M35,3.3H11.4v5c0.4,0.2,0.7,0.4,1,0.6V4.3H34v14.8H23.6l-0.6,1h12V3.3z M18.8,20.1l0.6-1h-3.1l1.8,1
		H18.8z M27.2,10.1l-0.5-0.3l-3.3,5.8l0.5,0.3L27.2,10.1z"/>
</g>
</svg>
