<?xml version="1.0" encoding="utf-8"?>
<!-- Generator: Adobe Illustrator 21.0.0, SVG Export Plug-In . SVG Version: 6.00 Build 0)  -->
<svg version="1.1" id="Layer_1" xmlns="http://www.w3.org/2000/svg" xmlns:xlink="http://www.w3.org/1999/xlink" x="0px" y="0px"
	 viewBox="0 0 29.4 24" style="enable-background:new 0 0 29.4 24;" xml:space="preserve">
<style type="text/css">
	.st0{fill:#FFFFFF;}
	.st1{fill:#F22403;}
	.st2{fill:#011174;}
</style>
<g>
	<g>
		<g>
			<rect y="21.2" class="st0" width="29.4" height="1.3"/>
			<rect y="18.3" class="st0" width="29.4" height="1.4"/>
			<rect y="22.5" class="st1" width="29.4" height="1.5"/>
			<rect y="19.7" class="st1" width="29.4" height="1.5"/>
			<rect y="15.2" class="st0" width="29.4" height="1.6"/>
			<polygon class="st0" points="0,9.6 0,10.8 29.4,10.8 29.4,9.6 12.7,9.6 			"/>
			<rect y="12.3" class="st0" width="29.4" height="1.4"/>
			<rect x="12.7" y="1.4" class="st0" width="16.7" height="1"/>
			<rect x="12.7" y="6.7" class="st0" width="16.7" height="1.4"/>
			<rect x="12.7" y="3.9" class="st0" width="16.7" height="1.3"/>
			<polygon class="st1" points="0,17.2 0,18.3 29.4,18.3 29.4,17.2 29.4,16.8 0,16.8 			"/>
			<rect y="13.7" class="st1" width="29.4" height="1.5"/>
			<rect y="10.8" class="st1" width="29.4" height="1.5"/>
			<rect x="12.7" y="8.1" class="st1" width="16.7" height="1.5"/>
			<rect x="12.7" y="5.2" class="st1" width="16.7" height="1.5"/>
			<rect x="12.7" y="2.4" class="st1" width="16.7" height="1.5"/>
			<rect x="12.7" class="st1" width="16.7" height="1.3"/>
			<path class="st2" d="M12.7,8.1V6.7V5.2V3.9V2.4v-1V0H0v1.3v1v1.5v1.3v1.6v1.4v1.5h12.7V8.1z M11.4,0.7l0.1-0.3l0.2,0.3H12
				l-0.2,0.2l0.1,0.3l-0.3-0.1l-0.3,0.1l0.1-0.3l-0.2-0.2H11.4z M9.3,0.7l0.1-0.3l0.2,0.3h0.3L9.7,1v0.3L9.4,1.2L9.1,1.3L9.2,1
				L9,0.8L9.3,0.7z M7.2,0.7l0.1-0.3l0.2,0.3h0.3L7.6,1l0.1,0.3L7.4,1.1L7.1,1.3L7.2,1L6.9,0.8L7.2,0.7z M5.1,0.7l0.1-0.3l0.2,0.3
				h0.3L5.5,1l0.1,0.3L5.3,1.1L5,1.3L5.1,1L4.8,0.8L5.1,0.7z M3,0.7l0.1-0.3l0.2,0.3h0.3L3.4,1l0.1,0.3L3.2,1.1L2.9,1.3L3,1L2.7,0.8
				L3,0.7z M0.9,0.7L1,0.4l0.2,0.3h0.3L1.3,1l0.1,0.3L1.1,1.1L0.8,1.3L0.9,1L0.7,0.8L0.9,0.7z M2.5,2.2L2.2,2.1L2,2.2l0.1-0.3
				L1.8,1.7h0.3l0.1-0.3l0.1,0.3h0.3L2.4,1.9L2.5,2.2z M4.6,2.2L4.3,2.1L4,2.2l0.1-0.3L3.9,1.7h0.3l0.1-0.3l0.1,0.3h0.3L4.5,1.9
				L4.6,2.2z M6.7,2.2L6.4,2.1L6.1,2.2l0.1-0.3L6,1.7h0.3l0.1-0.3l0.1,0.3h0.3L6.6,1.9L6.7,2.2z M8.8,2.2L8.5,2.1L8.2,2.2l0.1-0.3
				L8.1,1.7h0.3l0.1-0.3l0.1,0.3h0.3L8.7,1.9L8.8,2.2z M10.9,2.2l-0.3-0.1l-0.3,0.1l0.1-0.3l-0.2-0.2h0.3l0.1-0.3l0.1,0.3H11
				l-0.2,0.2L10.9,2.2z M1.3,5.1L1.1,5L0.8,5.1l0.1-0.3L0.7,4.6H1l0.1-0.3l0.1,0.3h0.3L1.3,4.8V5.1z M3.4,3.2L3.2,3.1L2.9,3.2L3,2.9
				L2.7,2.7H3l0.1-0.3l0.2,0.3h0.3L3.4,2.9V3.2z M3.9,3.7h0.3l0.1-0.3l0.1,0.3h0.3L4.5,3.9l0,0v0.3L4.3,4L4,4.2V3.9l0,0L3.9,3.7z
				 M5.5,3.2L5.3,3.1L5,3.2l0.1-0.3L4.8,2.7h0.3l0.1-0.3l0.2,0.3h0.3L5.5,2.9V3.2z M6,3.7h0.3l0.1-0.3l0.1,0.3h0.3L6.6,3.9l0,0v0.3
				L6.4,4L6.1,4.2V3.9l0,0L6,3.7z M7.6,3.2L7.4,3.1L7.1,3.2l0.1-0.3L6.9,2.7h0.3l0.1-0.3l0.2,0.3h0.3L7.6,2.9V3.2z M8.1,3.7h0.3
				l0.1-0.3l0.1,0.3h0.3L8.7,3.9l0,0v0.3L8.4,4.1L8.1,4.2V3.9l0,0V3.7z M9.7,3.2L9.4,3.1L9.1,3.2l0.1-0.3L9,2.7h0.3l0.1-0.3l0.2,0.3
				h0.3L9.7,2.9V3.2z M9.7,5.1L9.4,5L9.1,5.1l0.1-0.3L9,4.6h0.3l0.1-0.3l0.1,0.3h0.3L9.7,4.8V5.1z M7.6,5.1L7.4,5L7.1,5.1l0.1-0.3
				L6.9,4.6h0.3l0.1-0.3l0.1,0.3h0.3L7.6,4.8V5.1z M5.5,5.1L5.3,5L5,5.1l0.1-0.3L4.8,4.6h0.3l0.1-0.3l0.1,0.3h0.3L5.5,4.8V5.1z
				 M3,4.6l0.1-0.3l0.1,0.3h0.3L3.4,4.8l0.1,0.3L3.2,5L2.9,5.1L3,4.8L2.7,4.6H3z M11.8,5.1L11.5,5l-0.3,0.1l0.1-0.3l-0.2-0.2h0.3
				l0.1-0.3l0.2,0.3H12l-0.2,0.2V5.1z M10.9,4.2l-0.3-0.1l-0.3,0.1V3.9l0,0l-0.1-0.2h0.3l0.1-0.3l0.1,0.2H11l-0.2,0.2l0,0L10.9,4.2z
				 M11.8,3.2l-0.3-0.1l-0.3,0.1l0.1-0.3l-0.2-0.2h0.3l0.1-0.3l0.2,0.3H12l-0.2,0.2V3.2z M1.3,3.2L1.1,3.1L0.8,3.2l0.1-0.3L0.7,2.7
				H1l0.1-0.3l0.1,0.3h0.3L1.3,2.9V3.2z M1.8,3.7h0.3l0.1-0.3l0.1,0.3h0.3L2.4,3.9l0,0v0.3L2.2,4L2,4.2V3.9l0,0L1.8,3.7z M2.5,6.1
				L2.2,5.9L2,6.1l0.1-0.3L1.8,5.6h0.3l0.1-0.3l0.1,0.3h0.3L2.4,5.8L2.5,6.1z M2.7,6.5H3l0.1-0.3l0.1,0.3h0.3L3.4,6.7l0,0L3.5,7
				L3.2,6.9L2.9,7L3,6.7H2.9L2.7,6.5z M4.6,6.1L4.3,5.9L4,6.1l0.1-0.3L3.9,5.6h0.3l0.1-0.3l0.1,0.3h0.3L4.5,5.8L4.6,6.1z M4.8,6.5
				h0.3l0.1-0.3l0.1,0.3h0.3L5.5,6.7l0,0L5.6,7L5.3,6.9L5,7l0.1-0.3H5L4.8,6.5z M6.7,6.1L6.4,5.9L6.1,6.1l0.1-0.3L6,5.6h0.3l0.1-0.3
				l0.1,0.3h0.3L6.6,5.8L6.7,6.1z M6.9,6.5h0.3l0.1-0.3l0.1,0.3h0.3L7.6,6.7l0,0L7.7,7L7.4,6.9L7.1,7V6.7l0,0L6.9,6.5z M8.8,6.1
				L8.5,6L8.2,6.1l0.1-0.3L8.1,5.6h0.3l0.1-0.3l0.1,0.3h0.3L8.7,5.8L8.8,6.1z M9,6.5h0.3l0.1-0.3l0.1,0.3h0.3L9.7,6.7l0,0V7L9.4,6.9
				L9.1,7l0.1-0.3l0,0L9,6.5z M10.9,6.1L10.6,6l-0.3,0.1l0.1-0.3l-0.2-0.2h0.3l0.1-0.3l0.1,0.2H11l-0.2,0.2L10.9,6.1z M10.9,8
				l-0.3-0.1L10.3,8l0.1-0.3l-0.2-0.2h0.3l0.1-0.3l0.1,0.3H11l-0.2,0.2L10.9,8z M8.8,8L8.5,7.9L8.2,8l0.1-0.3L8.1,7.5h0.3l0.1-0.3
				l0.1,0.3h0.3L8.7,7.7L8.8,8z M6.7,8L6.4,7.9L6.1,8l0.1-0.3L6,7.5h0.3l0.1-0.3l0.1,0.3h0.3L6.6,7.7L6.7,8z M4.6,8L4.3,7.9L4,8
				l0.1-0.3L3.9,7.5h0.3l0.1-0.3l0.1,0.3h0.3L4.5,7.7L4.6,8z M2.1,7.5l0.1-0.3l0.1,0.3h0.3L2.4,7.7L2.5,8L2.2,7.9L1.9,8L2,7.7
				L1.8,7.5H2.1z M11.8,7l-0.3-0.1L11.2,7l0.1-0.3l0,0l-0.2-0.2h0.3l0.1-0.3l0.2,0.3H12l-0.2,0.2l0,0V7z M0.7,6.5H1l0.1-0.3l0.1,0.3
				h0.3L1.3,6.7l0,0L1.4,7L1.1,6.9L0.8,7l0.1-0.3H0.8L0.7,6.5z M1.3,9L1,8.9L0.7,9l0.2-0.3L0.7,8.5H1l0.1-0.3l0.1,0.3h0.3L1.3,8.7V9
				z M3.4,9L3.1,8.9L2.8,9L3,8.7L2.7,8.5H3l0.1-0.3l0.1,0.3h0.3L3.4,8.7V9z M5.5,9L5.2,8.9L4.9,9l0.2-0.3L4.9,8.5h0.3l0.1-0.3
				l0.1,0.3h0.3L5.5,8.7V9z M7.6,9L7.3,8.9L7,9l0.1-0.3L6.9,8.5h0.3l0.1-0.3l0.1,0.3h0.3L7.6,8.7V9z M9.7,9L9.4,8.9L9.1,9l0.1-0.3
				L9,8.5h0.3l0.1-0.3l0.1,0.3h0.3L9.7,8.7V9z M11.8,9l-0.3-0.1L11.2,9l0.1-0.3l-0.2-0.2h0.3l0.1-0.3l0.1,0.3h0.3l-0.1,0.2V9z"/>
			<polygon class="st0" points="0.8,1.3 1.1,1.1 1.3,1.3 1.3,1 1.5,0.8 1.2,0.7 1.1,0.5 0.9,0.7 0.7,0.8 0.9,1 			"/>
			<polygon class="st0" points="2.9,1.3 3.2,1.1 3.4,1.3 3.4,1 3.6,0.8 3.3,0.7 3.2,0.5 3,0.7 2.7,0.8 3,1 			"/>
			<polygon class="st0" points="5,1.3 5.3,1.1 5.5,1.3 5.5,1 5.7,0.8 5.4,0.7 5.3,0.5 5.1,0.7 4.8,0.8 5.1,1 			"/>
			<polygon class="st0" points="7.1,1.3 7.4,1.1 7.6,1.3 7.6,1 7.8,0.8 7.5,0.7 7.4,0.5 7.2,0.7 6.9,0.8 7.1,1 			"/>
			<polygon class="st0" points="9.2,1.3 9.5,1.1 9.7,1.3 9.7,1 9.9,0.8 9.6,0.7 9.5,0.5 9.3,0.7 9,0.8 9.2,1 			"/>
			<polygon class="st0" points="11.3,1.3 11.6,1.1 11.8,1.3 11.8,1 12,0.8 11.7,0.7 11.6,0.5 11.4,0.7 11.1,0.8 11.3,1 			"/>
			<polygon class="st0" points="2.3,1.7 2.2,1.4 2.1,1.7 1.8,1.7 2,1.9 2,2.2 2.2,2.1 2.5,2.2 2.4,1.9 2.6,1.7 			"/>
			<polygon class="st0" points="4.4,1.7 4.3,1.4 4.2,1.7 3.9,1.7 4.1,1.9 4,2.2 4.3,2.1 4.6,2.2 4.5,1.9 4.7,1.7 			"/>
			<polygon class="st0" points="6.5,1.7 6.4,1.4 6.3,1.7 6,1.7 6.2,1.9 6.1,2.2 6.4,2.1 6.7,2.2 6.6,1.9 6.8,1.7 			"/>
			<polygon class="st0" points="8.6,1.7 8.5,1.4 8.4,1.7 8.1,1.7 8.3,1.9 8.2,2.2 8.5,2.1 8.8,2.2 8.7,1.9 8.9,1.7 			"/>
			<polygon class="st0" points="10.7,1.7 10.6,1.4 10.5,1.7 10.2,1.7 10.4,1.9 10.3,2.2 10.6,2.1 10.9,2.2 10.8,1.9 11,1.7 			"/>
			<polygon class="st0" points="2,4.2 2.2,4 2.5,4.2 2.4,3.9 2.4,3.9 2.6,3.7 2.3,3.6 2.2,3.3 2.1,3.6 1.8,3.7 2,3.9 2,3.9 			"/>
			<polygon class="st0" points="4,4.2 4.3,4 4.6,4.2 4.5,3.9 4.5,3.9 4.7,3.7 4.4,3.6 4.3,3.3 4.2,3.6 3.9,3.7 4.1,3.9 4.1,3.9 			
				"/>
			<polygon class="st0" points="6.1,4.2 6.4,4 6.7,4.2 6.6,3.9 6.6,3.9 6.8,3.7 6.5,3.6 6.4,3.3 6.3,3.6 6,3.7 6.2,3.9 6.2,3.9 			
				"/>
			<polygon class="st0" points="8.2,4.2 8.5,4 8.8,4.2 8.7,3.9 8.7,3.9 8.9,3.7 8.6,3.6 8.5,3.3 8.4,3.6 8.1,3.7 8.3,3.9 8.3,3.9 
							"/>
			<polygon class="st0" points="11,3.7 10.7,3.6 10.6,3.3 10.5,3.6 10.2,3.7 10.4,3.9 10.4,3.9 10.3,4.2 10.6,4 10.9,4.2 10.8,3.9 
				10.8,3.9 			"/>
			<polygon class="st0" points="2.3,5.5 2.2,5.3 2.1,5.5 1.8,5.6 2,5.8 2,6.1 2.2,5.9 2.5,6.1 2.4,5.8 2.6,5.6 			"/>
			<polygon class="st0" points="4.4,5.5 4.3,5.3 4.2,5.5 3.9,5.6 4.1,5.8 4,6.1 4.3,5.9 4.6,6.1 4.5,5.8 4.7,5.6 			"/>
			<polygon class="st0" points="6.5,5.5 6.4,5.3 6.3,5.5 6,5.6 6.2,5.8 6.1,6.1 6.4,5.9 6.7,6.1 6.6,5.8 6.8,5.6 			"/>
			<polygon class="st0" points="8.6,5.5 8.5,5.3 8.4,5.5 8.1,5.6 8.3,5.8 8.2,6.1 8.5,5.9 8.8,6.1 8.7,5.8 8.9,5.6 			"/>
			<polygon class="st0" points="10.7,5.5 10.6,5.3 10.5,5.5 10.2,5.6 10.4,5.8 10.3,6.1 10.6,5.9 10.9,6.1 10.8,5.8 11,5.6 			"/>
			<polygon class="st0" points="2,8 2.2,7.9 2.5,8 2.4,7.7 2.6,7.5 2.3,7.5 2.2,7.2 2.1,7.5 1.8,7.5 2,7.7 			"/>
			<polygon class="st0" points="4.4,7.5 4.3,7.2 4.2,7.5 3.9,7.5 4.1,7.7 4,8 4.3,7.9 4.6,8 4.5,7.7 4.7,7.5 			"/>
			<polygon class="st0" points="6.5,7.5 6.4,7.2 6.3,7.5 6,7.5 6.2,7.7 6.1,8 6.4,7.9 6.7,8 6.6,7.7 6.8,7.5 			"/>
			<polygon class="st0" points="8.6,7.5 8.5,7.2 8.4,7.5 8.1,7.5 8.3,7.7 8.2,8 8.5,7.9 8.8,8 8.7,7.7 8.9,7.5 			"/>
			<polygon class="st0" points="10.7,7.5 10.6,7.2 10.5,7.5 10.2,7.5 10.4,7.7 10.3,8 10.6,7.9 10.9,8 10.8,7.7 11,7.5 			"/>
			<polygon class="st0" points="1.2,2.7 1.1,2.4 0.9,2.7 0.7,2.7 0.9,2.9 0.8,3.2 1.1,3.1 1.3,3.2 1.3,2.9 1.5,2.7 			"/>
			<polygon class="st0" points="3.3,2.7 3.2,2.4 3,2.7 2.7,2.7 3,2.9 2.9,3.2 3.2,3.1 3.4,3.2 3.4,2.9 3.6,2.7 			"/>
			<polygon class="st0" points="5.4,2.7 5.3,2.4 5.1,2.7 4.8,2.7 5.1,2.9 5,3.2 5.3,3.1 5.5,3.2 5.5,2.9 5.7,2.7 			"/>
			<polygon class="st0" points="7.5,2.7 7.4,2.4 7.2,2.7 6.9,2.7 7.1,2.9 7.1,3.2 7.4,3.1 7.6,3.2 7.6,2.9 7.8,2.7 			"/>
			<polygon class="st0" points="9.6,2.7 9.5,2.4 9.3,2.7 9,2.7 9.2,2.9 9.2,3.2 9.5,3.1 9.7,3.2 9.7,2.9 9.9,2.7 			"/>
			<polygon class="st0" points="11.7,2.7 11.6,2.4 11.4,2.7 11.1,2.7 11.3,2.9 11.3,3.2 11.6,3.1 11.8,3.2 11.8,2.9 12,2.7 			"/>
			<polygon class="st0" points="1.2,4.6 1.1,4.3 0.9,4.6 0.7,4.6 0.9,4.8 0.8,5.1 1.1,5 1.3,5.1 1.3,4.8 1.5,4.6 			"/>
			<polygon class="st0" points="2.9,5.1 3.2,5 3.4,5.1 3.4,4.8 3.6,4.6 3.3,4.6 3.2,4.3 3,4.6 2.7,4.6 3,4.8 			"/>
			<polygon class="st0" points="5.4,4.6 5.3,4.3 5.1,4.6 4.8,4.6 5.1,4.8 5,5.1 5.3,5 5.5,5.1 5.5,4.8 5.7,4.6 			"/>
			<polygon class="st0" points="7.5,4.6 7.4,4.3 7.2,4.6 6.9,4.6 7.1,4.8 7.1,5.1 7.4,5 7.6,5.1 7.6,4.8 7.8,4.6 			"/>
			<polygon class="st0" points="9.6,4.6 9.5,4.3 9.3,4.6 9,4.6 9.2,4.8 9.2,5.1 9.5,5 9.7,5.1 9.7,4.8 9.9,4.6 			"/>
			<polygon class="st0" points="11.7,4.6 11.6,4.3 11.4,4.6 11.1,4.6 11.3,4.8 11.3,5.1 11.6,5 11.8,5.1 11.8,4.8 12,4.6 			"/>
			<polygon class="st0" points="0.8,7 1.1,6.9 1.3,7 1.3,6.7 1.3,6.7 1.5,6.5 1.2,6.5 1.1,6.2 0.9,6.5 0.7,6.5 0.8,6.7 0.9,6.7 			
				"/>
			<polygon class="st0" points="2.9,7 3.2,6.9 3.4,7 3.4,6.7 3.4,6.7 3.6,6.5 3.3,6.5 3.2,6.2 3,6.5 2.7,6.5 2.9,6.7 3,6.7 			"/>
			<polygon class="st0" points="5,7 5.3,6.9 5.5,7 5.5,6.7 5.5,6.7 5.7,6.5 5.4,6.5 5.3,6.2 5.1,6.5 4.8,6.5 5,6.7 5.1,6.7 			"/>
			<polygon class="st0" points="7.1,7 7.4,6.9 7.6,7 7.6,6.7 7.6,6.7 7.8,6.5 7.5,6.5 7.4,6.2 7.2,6.5 6.9,6.5 7.1,6.7 7.1,6.7 			
				"/>
			<polygon class="st0" points="9.2,7 9.5,6.9 9.7,7 9.7,6.7 9.7,6.7 9.9,6.5 9.6,6.5 9.5,6.2 9.3,6.5 9,6.5 9.2,6.7 9.2,6.7 			"/>
			<polygon class="st0" points="12,6.5 11.7,6.5 11.6,6.2 11.4,6.5 11.1,6.5 11.3,6.7 11.3,6.7 11.3,7 11.6,6.9 11.8,7 11.8,6.7 
				11.8,6.7 			"/>
			<polygon class="st0" points="1.2,8.4 1.1,8.2 0.9,8.4 0.7,8.5 0.9,8.7 0.8,9 1.1,8.8 1.3,9 1.3,8.7 1.5,8.5 			"/>
			<polygon class="st0" points="3.3,8.4 3.2,8.2 3,8.4 2.7,8.5 3,8.7 2.9,9 3.2,8.8 3.4,9 3.4,8.7 3.6,8.5 			"/>
			<polygon class="st0" points="5.4,8.4 5.3,8.2 5.1,8.4 4.8,8.5 5.1,8.7 5,9 5.3,8.8 5.5,9 5.5,8.7 5.7,8.5 			"/>
			<polygon class="st0" points="7.5,8.4 7.4,8.2 7.2,8.4 6.9,8.5 7.1,8.7 7.1,9 7.4,8.8 7.6,9 7.6,8.7 7.8,8.5 			"/>
			<polygon class="st0" points="9.6,8.4 9.5,8.2 9.3,8.4 9,8.5 9.2,8.7 9.2,9 9.5,8.8 9.7,9 9.7,8.7 9.9,8.5 			"/>
			<polygon class="st0" points="11.7,8.4 11.6,8.2 11.4,8.4 11.1,8.5 11.3,8.7 11.3,9 11.6,8.8 11.8,9 11.8,8.7 12,8.5 			"/>
		</g>
	</g>
</g>
</svg>
