<?xml version="1.0" encoding="utf-8"?>
<!-- Generator: Adobe Illustrator 21.0.0, SVG Export Plug-In . SVG Version: 6.00 Build 0)  -->
<svg version="1.1" id="Layer_1" xmlns="http://www.w3.org/2000/svg" xmlns:xlink="http://www.w3.org/1999/xlink" x="0px" y="0px"
	 viewBox="0 0 40 50.5" style="enable-background:new 0 0 40 50.5;" xml:space="preserve">
<style type="text/css">
	.st0{fill:#2E2D2C;}
</style>
<g>
	<g>
		<path class="st0" d="M29.3,23.5C29,24,28.9,24.5,28.9,25c0,0.8,0.4,1.6,1.1,2.1c0.7,0.5,1.6,0.6,2.4,0.3c0.8-0.3,1.4-0.9,1.6-1.7
			c0.2-0.8,0.1-1.7-0.5-2.4c-0.5-0.7-1.3-1-2.2-1C30.5,22.4,29.8,22.9,29.3,23.5z"/>
		<path class="st0" d="M36.4,33.9C36.4,34,36.4,33.8,36.4,33.9L36.4,33.9z"/>
		<path class="st0" d="M13,14.7c0.6,0.3,1.3,0.5,2,0.5c1.7,0,3.2-1,3.9-2.5c0.7-1.5,0.4-3.4-0.8-4.6c-1.1-1.2-3-1.7-4.6-1.1
			c-1.6,0.6-2.7,2-2.8,3.7C10.6,12.3,11.5,13.9,13,14.7z"/>
		<path class="st0" d="M20.3,11c0.8,0.7,1.9,1.1,3,1.1c1.7,0,3.2-1,4-2.5c0.8-1.5,0.6-3.4-0.4-4.7c-1-1.3-2.8-2-4.4-1.7
			c-1.6,0.3-3,1.6-3.4,3.1C18.6,8.1,19.1,9.9,20.3,11z"/>
		<g>
			<path class="st0" d="M34.9,34.7c0,0.4,0.4,0.7,0.8,0.7c0.4,0,0.7-0.4,0.7-0.8c0-0.2,0-0.5,0-0.7c0-0.5-0.1-1.1-0.3-1.6
				c-0.1-0.4-0.3-0.9-0.5-1.3c-0.5-1-1.3-1.9-2.2-2.5c-0.2-0.2-0.4-0.3-0.7-0.4c-0.7-0.3-1.5-0.3-2.3,0c-0.2,0.1-0.4,0.2-0.5,0.3
				c-0.2,0.1-0.4,0.3-0.6,0.4c-0.4,0.4-0.9,0.8-1.2,1.2c-0.6,0.8-1.1,1.7-1.3,2.7c-0.1,0.6-0.2,1.2-0.2,1.8c0,0.4,0.3,0.7,0.7,0.8
				c0.4,0,0.8-0.3,0.8-0.7c0.1-0.9,0.3-1.7,0.8-2.4v0.8L27.2,40c-0.1,0.3-0.1,0.6,0.5,0.6h1.4l0.3,5.8c0,0.5,0.4,0.9,0.9,0.9
				c0.5,0,0.9-0.4,0.9-0.9l0.3-5.8h0.1l0.3,5.8c0,0.5,0.4,0.9,0.9,0.9c0.5,0,0.9-0.4,0.9-0.9l0.3-5.8h1.4c0.2,0,0.3-0.1,0.4-0.2
				c0.1-0.1,0.1-0.3,0.1-0.4l-1.7-7v-0.8C34.6,33,34.8,33.8,34.9,34.7z"/>
			<path class="st0" d="M26.7,40.3l0.6-2.6l0.1-1.6c-0.7-0.2-1.3-0.8-1.3-1.6c0-0.7,0-1.4,0.2-2.1c0.2-0.7,0.4-1.4,0.8-2
				c0.2-0.4,0.4-0.7,0.7-1.1c0-0.3,0-0.6,0-0.9c0-0.4,0-0.8,0-1.2c0-1.2,0-2.4,0-3.5c0-0.8,0-1.7,0-2.5c0,0,0-0.1,0-0.1
				c0.4,0.8,0.6,1.7,0.9,2.5c0.5-1.1,1.5-1.7,2.8-1.9c-0.2-0.9-0.6-2-1-2.8c-0.5-1.1-1.1-2.1-1.8-3c-0.5-0.6-1-1.1-1.6-1.6
				c-0.3-0.2-0.6-0.5-0.9-0.7c-0.3-0.2-0.5-0.3-0.8-0.5c-2.9-1.4-5.2,0.9-5.3,0.9c-0.6,0.6-1.2,1.1-1.9,1.7c1.6,1.2,3,2.7,4,4.5
				c0.6,1.1,1,2.4,1.2,3.7c0.1,0.9,0.2,1.7,0.2,2.6c0,1.2-1,2.2-2.2,2.2c-0.2,0-0.4,0-0.5-0.1c0,0,1.6,6,1.7,6.4
				c0.1,0.5,0.2,1.6-1,1.6c-1.3,0-2,0-2,0l-0.2,2.7l0.3,6.6c0,0.8,0.7,1.5,1.5,1.5c0.8,0,1.5-0.7,1.5-1.5l0.6-11l0.5,11
				c0,0.8,0.7,1.5,1.5,1.5c0.8,0,1.5-0.7,1.5-1.5l0.2-4.8C26.5,40.9,26.7,40.3,26.7,40.3z"/>
		</g>
		<path class="st0" d="M21.3,36c0.2,0,0.4-0.1,0.6-0.3c0.1-0.2,0.2-0.4,0.2-0.6l-3-10.7v-1.7c0.4,0.7,0.7,1.4,0.9,2.2
			c0.2,0.6,0.2,1.2,0.3,1.8c0.1,0.7,0.7,1.2,1.3,1.1c0.7,0,1.2-0.6,1.2-1.3c0-0.4,0-0.8,0-1.2c0-0.6-0.1-1.1-0.2-1.7
			c-0.2-1.1-0.7-2.2-1.2-3.3c-0.6-1-1.3-1.9-2.2-2.7c-0.4-0.4-0.8-0.7-1.3-1.1c-0.3-0.2-0.7-0.5-1.1-0.7c0,0-0.1,0-0.1,0
			c-1.2-0.6-2.5-0.6-3.7,0c-0.4,0.1-0.8,0.4-1.1,0.7c-0.5,0.3-0.9,0.7-1.3,1c-0.9,0.8-1.6,1.7-2.2,2.7c-0.3,0.5-0.6,1-0.8,1.6
			c-0.2,0.5-0.4,1.1-0.5,1.7c-0.1,0.6-0.2,1.1-0.3,1.7c0,0.4,0,0.9,0,1.4c0,0,0,0,0,0c0,0.7,0.5,1.2,1.2,1.3c0.7,0,1.2-0.5,1.3-1.1
			c0.1-0.6,0.1-1.2,0.3-1.8c0.2-0.8,0.5-1.5,0.9-2.2v1.6l-3,10.8c0,0.2,0,0.5,0.2,0.6C7.9,35.9,8.2,36,8.4,36h2.5l0.5,9.9
			c0,0.8,0.7,1.4,1.5,1.4c0.8,0,1.4-0.6,1.5-1.4l0.5-9.9h0.1l0.4,9.9c0,0.8,0.7,1.4,1.5,1.4c0.8,0,1.4-0.6,1.5-1.4l0.5-9.9L21.3,36
			L21.3,36z"/>
	</g>
</g>
</svg>
