<?xml version="1.0" encoding="utf-8"?>
<!-- Generator: Adobe Illustrator 21.0.0, SVG Export Plug-In . SVG Version: 6.00 Build 0)  -->
<svg version="1.1" id="Layer_1" xmlns="http://www.w3.org/2000/svg" xmlns:xlink="http://www.w3.org/1999/xlink" x="0px" y="0px"
	 viewBox="0 0 40 50.5" style="enable-background:new 0 0 40 50.5;" xml:space="preserve">
<style type="text/css">
	.st0{fill:#2E2D2C;}
</style>
<g>
	<g>
		<path class="st0" d="M12,3.3V13c0.8-0.5,1.6-0.9,2.4-1.3c1.8-0.7,3.6-1.1,5.5-1.1s3.8,0.4,5.5,1.1c0.9,0.4,1.7,0.8,2.4,1.3V3.3H12
			z"/>
	</g>
</g>
<g>
	<g>
		<path class="st0" d="M20,13.1c-6.5,0-11.7,5.3-11.7,11.7S13.5,36.5,20,36.5s11.7-5.3,11.7-11.7S26.5,13.1,20,13.1z M22.6,28.4
			l-3.9-3v-7.8h2.5v6.6l2.9,2.2L22.6,28.4z"/>
	</g>
</g>
<g>
	<g>
		<path class="st0" d="M25.5,37.9c-1.8,0.7-3.6,1.1-5.5,1.1s-3.8-0.4-5.5-1.1c-0.9-0.4-1.7-0.8-2.4-1.3v9.6H28v-9.6
			C27.2,37.1,26.4,37.6,25.5,37.9z"/>
	</g>
</g>
</svg>
