<?xml version="1.0" encoding="utf-8"?>
<!-- Generator: Adobe Illustrator 21.0.0, SVG Export Plug-In . SVG Version: 6.00 Build 0)  -->
<svg version="1.1" id="Layer_1" xmlns="http://www.w3.org/2000/svg" xmlns:xlink="http://www.w3.org/1999/xlink" x="0px" y="0px"
	 viewBox="0 0 40 34.2" style="enable-background:new 0 0 40 34.2;" xml:space="preserve">
<style type="text/css">
	.st0{fill:#2E2D2C;}
</style>
<g>
	<g>
		<path class="st0" d="M37.8,11.7c-0.2-0.2-0.4-0.3-0.7-0.3h-3.5c-0.9-2.3-2-4.5-3.3-5.3C26,3.1,14.3,3.1,9.9,6
			c-1.3,0.8-2.4,3.1-3.3,5.3H3.2c-0.3,0-0.5,0.1-0.7,0.3c-0.2,0.2-0.2,0.5-0.2,0.8l0.5,2.5c0.1,0.4,0.5,0.7,0.9,0.7h1
			c-1,1.1-1.5,2.6-1.5,4c0,1.8,0.7,3.4,1.9,4.6c0,0,0,0,0,0v3.5c0,0.8,0.6,1.4,1.4,1.4h3.2c0.8,0,1.4-0.6,1.4-1.4v-1.4h18v1.4
			c0,0.8,0.6,1.4,1.4,1.4h3.2c0.8,0,1.4-0.6,1.4-1.4v-3.4c1.3-1.2,1.9-2.9,2-4.5c0-1.5-0.5-3-1.6-4.2h1.1c0.4,0,0.8-0.3,0.9-0.7
			l0.5-2.5C38.1,12.2,38,11.9,37.8,11.7z M11.4,8.3c3.5-2.3,14-2.3,17.5,0c0.7,0.4,1.6,2.3,2.4,4.5H9C9.8,10.6,10.7,8.8,11.4,8.3z
			 M7.3,20.1c0-1.5,1.2-2.7,2.7-2.7c1.5,0,2.7,1.2,2.7,2.7s-1.2,2.7-2.7,2.7C8.5,22.8,7.3,21.6,7.3,20.1z M30.3,22.8
			c-1.5,0-2.7-1.2-2.7-2.7s1.2-2.7,2.7-2.7c1.5,0,2.7,1.2,2.7,2.7S31.8,22.8,30.3,22.8z"/>
	</g>
</g>
</svg>
