<?xml version="1.0" encoding="utf-8"?>
<!-- Generator: Adobe Illustrator 21.0.0, SVG Export Plug-In . SVG Version: 6.00 Build 0)  -->
<svg version="1.1" id="Layer_1" xmlns="http://www.w3.org/2000/svg" xmlns:xlink="http://www.w3.org/1999/xlink" x="0px" y="0px"
	 viewBox="0 0 40 30.5" style="enable-background:new 0 0 40 30.5;" xml:space="preserve">
<style type="text/css">
	.st0{fill:#2E2D2C;}
</style>
<g>
	<g>
		<path class="st0" d="M35.7,4.5c0.4,0,0.7-0.3,0.7-0.7V3.1c0-0.4-0.3-0.7-0.7-0.7H3.5c-0.4,0-0.7,0.3-0.7,0.7v0.7
			c0,0.4,0.3,0.7,0.7,0.7c0.7,0,1.3,0.6,1.3,1.3c0,0.7-0.6,1.3-1.3,1.3c-0.4,0-0.7,0.3-0.7,0.7V9c0,0.4,0.3,0.7,0.7,0.7
			c0.7,0,1.3,0.6,1.3,1.3c0,0.7-0.6,1.3-1.3,1.3c-0.4,0-0.7,0.3-0.7,0.7v1.1c0,0.4,0.3,0.7,0.7,0.7c0.7,0,1.3,0.6,1.3,1.3
			s-0.6,1.3-1.3,1.3c-0.4,0-0.7,0.3-0.7,0.7v0.7c0,0.4,0.3,0.7,0.7,0.7h3.1l0.3,0.6c0.2,0.4,0.6,0.5,1,0.3c0.5-0.2,1.1,0,1.4,0.5
			c0.1,0.2,0.1,0.5,0,0.8c-0.1,0.3-0.3,0.5-0.5,0.6c-0.2,0.1-0.3,0.2-0.4,0.4c-0.1,0.2-0.1,0.4,0,0.6l0.4,0.8c0.2,0.4,0.6,0.5,1,0.3
			c0.2-0.1,0.5-0.1,0.8,0c0.3,0.1,0.5,0.3,0.6,0.5c0.2,0.5,0,1.1-0.5,1.4c-0.4,0.2-0.5,0.6-0.3,1l0.3,0.6c0.1,0.3,0.4,0.4,0.7,0.4
			c0.1,0,0.2,0,0.3-0.1l18-8.6h4.6h1.5c0.4,0,0.7-0.3,0.7-0.7v-0.7c0-0.4-0.3-0.7-0.7-0.7c-0.7,0-1.3-0.6-1.3-1.3
			c0-0.7,0.6-1.3,1.3-1.3c0.4,0,0.7-0.3,0.7-0.7v-1.1c0-0.4-0.3-0.7-0.7-0.7c-0.7,0-1.3-0.6-1.3-1.3c0-0.7,0.6-1.3,1.3-1.3
			c0.4,0,0.7-0.3,0.7-0.7V7.9c0-0.4-0.3-0.7-0.7-0.7c-0.7,0-1.3-0.6-1.3-1.3C34.4,5.1,35,4.5,35.7,4.5z M12.6,26.4
			c0.2-0.6,0.1-1.2-0.1-1.8c-0.3-0.6-0.8-1-1.4-1.3c-0.3-0.1-0.5-0.1-0.8-0.1c0.6-0.7,0.7-1.7,0.3-2.6c-0.1-0.3-0.4-0.6-0.6-0.8h0.6
			l2.4,4.7c0.1,0.3,0.4,0.4,0.7,0.4c0.1,0,0.2,0,0.3-0.1l10.9-5h1.4L12.6,26.4z M13.5,21.9c0.1,0.3,0.4,0.5,0.7,0.5
			c0.1,0,0.2,0,0.3,0l6.6-2.5h0.2L14,23.2l-1.7-3.4h4.7L14,21C13.6,21.1,13.4,21.6,13.5,21.9z M34.7,8.5c-1.1,0.4-1.8,1.4-1.8,2.6
			c0,1.2,0.8,2.2,1.8,2.6c-1.1,0.4-1.8,1.4-1.8,2.6c0,0.8,0.4,1.6,0.9,2.1H8.2H5.4c0.6-0.5,0.9-1.3,0.9-2.1c0-1.2-0.8-2.2-1.8-2.6
			c1.1-0.4,1.8-1.4,1.8-2.6c0-1.2-0.8-2.2-1.8-2.6c1.1-0.4,1.8-1.4,1.8-2.6C6.3,5,6,4.3,5.4,3.8h28.4c-0.6,0.5-0.9,1.3-0.9,2.1
			C32.9,7.1,33.7,8.1,34.7,8.5z"/>
		<path class="st0" d="M31.6,5.1H7.7c-0.4,0-0.7,0.3-0.7,0.7v10.5c0,0.4,0.3,0.7,0.7,0.7h23.9c0.4,0,0.7-0.3,0.7-0.7V5.9
			C32.3,5.5,32,5.1,31.6,5.1z M30.8,6.6v0.5c-0.1-0.2-0.3-0.3-0.5-0.3H8.7c-0.1,0-0.2,0-0.3,0.1V6.6C8.4,6.6,30.8,6.6,30.8,6.6z
			 M29.6,12.9c0.5,0,1-0.3,1.2-0.7v2.1c-0.1-0.2-0.3-0.3-0.5-0.3H8.7c-0.1,0-0.2,0-0.3,0.1v-1.6c0.3,0.2,0.6,0.4,1,0.4
			c0.8,0,1.4-0.6,1.4-1.4c0-0.8-0.6-1.4-1.4-1.4c-0.4,0-0.7,0.2-1,0.4V8.2c0.1,0,0.2,0.1,0.3,0.1h21.6c0.2,0,0.4-0.1,0.5-0.3v2.7
			c-0.2-0.4-0.7-0.7-1.2-0.7c-0.8,0-1.4,0.6-1.4,1.4C28.2,12.2,28.8,12.9,29.6,12.9z M8.4,15.6v-0.3c0.1,0,0.2,0.1,0.3,0.1h21.6
			c0.2,0,0.4-0.1,0.5-0.3v0.4H8.4z"/>
		<polygon class="st0" points="10.7,10.2 11.2,10.2 11.2,9.6 12.2,9.6 12.2,12.6 11.5,12.6 11.5,13.1 13.4,13.1 13.4,12.6 
			12.7,12.6 12.7,9.6 13.7,9.6 13.7,10.2 14.2,10.2 14.2,9.1 10.7,9.1 		"/>
		<polygon class="st0" points="14.6,9.6 15.2,9.6 15.2,12.6 14.6,12.6 14.6,13.1 16.4,13.1 16.4,12.6 15.8,12.6 15.8,9.6 16.4,9.6 
			16.4,9.1 14.6,9.1 		"/>
		<polygon class="st0" points="18,9.6 18.6,9.6 18.6,9.1 16.9,9.1 16.9,9.6 17.5,9.6 17.5,12.6 16.9,12.6 16.9,13.1 18.7,13.1 
			18.7,12.6 18,12.6 		"/>
		<polygon class="st0" points="19,11.1 20.4,9.6 20.9,9.6 20.9,9.1 19.2,9.1 19.2,9.6 19.8,9.6 18.3,11.1 18.3,11.1 20,13.1 
			21,13.1 21,12.6 20.4,12.6 		"/>
		<polygon class="st0" points="24,12.6 22.5,12.6 22.5,11.3 24.1,11.3 24.1,10.9 22.5,10.9 22.5,9.6 24,9.6 24,10.2 24.6,10.2 
			24.6,9.1 21.3,9.1 21.3,9.6 21.9,9.6 21.9,12.6 21.3,12.6 21.3,13.1 24.6,13.1 24.6,12 24,12 		"/>
		<polygon class="st0" points="25,10.2 25.5,10.2 25.5,9.6 26.5,9.6 26.5,12.6 25.9,12.6 25.9,13.1 27.7,13.1 27.7,12.6 27.1,12.6 
			27.1,9.6 28.1,9.6 28.1,10.2 28.6,10.2 28.6,9.1 25,9.1 		"/>
	</g>
</g>
</svg>
