<?xml version="1.0" encoding="utf-8"?>
<!-- Generator: Adobe Illustrator 21.0.0, SVG Export Plug-In . SVG Version: 6.00 Build 0)  -->
<svg version="1.1" id="Layer_1" xmlns="http://www.w3.org/2000/svg" xmlns:xlink="http://www.w3.org/1999/xlink" x="0px" y="0px"
	 viewBox="0 0 40 37.3" style="enable-background:new 0 0 40 37.3;" xml:space="preserve">
<style type="text/css">
	.st0{fill:#9BD4DC;}
</style>
<g>
	<g>
		<path class="st0" d="M28.6,7.8c-1.7-1.7-3.8-2.8-6.1-3.3V3.3c0-1.3-1-2.3-2.3-2.3h-0.4c-1.3,0-2.3,1-2.3,2.3v1.2
			c-2.3,0.5-4.4,1.6-6.1,3.3C9.3,9.9,8,12.7,7.8,15.6c-0.2,2.9,0.7,5.9,2.5,8.2l7.4,9.6c0.6,0.7,1.4,1.1,2.3,1.1
			c0.9,0,1.8-0.4,2.3-1.1l7.4-9.6c1.6-2.1,2.5-4.7,2.5-7.4C32.2,13.1,30.9,10.1,28.6,7.8z M18.8,3.3L18.8,3.3c0-0.6,0.5-1,1-1h0.4
			c0.6,0,1,0.5,1,1v1c0,0-0.1,0-0.1,0c0,0-0.1,0-0.1,0c-0.1,0-0.1,0-0.2,0c0,0-0.1,0-0.1,0c-0.1,0-0.1,0-0.2,0c0,0-0.1,0-0.1,0
			c-0.1,0-0.1,0-0.2,0c0,0,0,0-0.1,0c-0.1,0-0.3,0-0.4,0c0,0,0,0-0.1,0c-0.1,0-0.1,0-0.2,0c0,0-0.1,0-0.1,0c-0.1,0-0.1,0-0.2,0
			c0,0-0.1,0-0.1,0c-0.1,0-0.1,0-0.2,0c-0.1,0-0.1,0-0.2,0c0,0-0.1,0-0.1,0L18.8,3.3L18.8,3.3z M28.6,23l-7.4,9.6
			C21,33,20.5,33.2,20,33.2s-1-0.2-1.3-0.6L11.4,23c-3.3-4.3-2.9-10.5,0.9-14.3c1.6-1.6,3.7-2.7,5.9-3c1.1-0.2,2.3-0.2,3.4,0
			c0.1,0,0.1,0,0.2,0c2.2,0.4,4.3,1.4,5.9,3c2.1,2.1,3.2,4.8,3.2,7.7C30.9,18.8,30.1,21.1,28.6,23z"/>
	</g>
</g>
<g>
	<g>
		<path class="st0" d="M20,7.5c-0.9,0-1.8,0.1-2.7,0.4c-0.3,0.1-0.5,0.5-0.4,0.8c0.1,0.3,0.5,0.5,0.8,0.4C18.5,9,19.2,8.9,20,8.9
			c4.1,0,7.5,3.4,7.5,7.5s-3.4,7.5-7.5,7.5s-7.5-3.4-7.5-7.5c0-1.2,0.3-2.3,0.8-3.3c0.2-0.3,0-0.7-0.3-0.9c-0.3-0.2-0.7,0-0.9,0.3
			c-0.6,1.2-0.9,2.5-0.9,3.9c0,4.9,4,8.8,8.8,8.8s8.8-4,8.8-8.8S24.9,7.5,20,7.5z"/>
	</g>
</g>
<g>
	<g>
		<path class="st0" d="M23.3,10.8c-0.2-0.1-0.5-0.1-0.7,0L18,14.3c-0.2,0.2-0.4,0.3-0.5,0.5c-0.1,0.2-0.2,0.4-0.2,0.6
			c0,0,0,0.1,0,0.1l-0.9,5.7c0,0.3,0.1,0.5,0.3,0.7C16.8,22,16.9,22,17,22c0.1,0,0.3,0,0.4-0.1l4.6-3.5c0.1-0.1,0.1-0.1,0.2-0.2
			c0.1-0.1,0.1-0.1,0.2-0.2c0,0,0-0.1,0.1-0.1c0,0,0,0,0,0c0,0,0,0,0-0.1c0,0,0,0,0,0c0,0,0,0,0,0c0,0,0,0,0,0
			c0.1-0.2,0.2-0.4,0.2-0.7l0.9-5.7C23.7,11.2,23.5,10.9,23.3,10.8z M17.9,19.8l0.6-3.6l2.3,1.4L17.9,19.8z M21.5,16.5l-2.3-1.4
			l2.9-2.2L21.5,16.5z"/>
	</g>
</g>
<g>
	<g>
		<path class="st0" d="M20,29.7l-2.9-4c-0.2-0.3-0.6-0.4-0.9-0.1c-0.3,0.2-0.4,0.6-0.1,0.9l2.9,4c0.1,0.2,0.3,0.3,0.5,0.3
			c0.1,0,0.3,0,0.4-0.1C20.2,30.4,20.2,30,20,29.7z"/>
	</g>
</g>
<g>
	<g>
		<path class="st0" d="M15.3,10.1c0,0,0-0.1,0-0.1c0,0,0-0.1-0.1-0.1c0,0-0.1-0.1-0.1-0.1c0,0-0.1-0.1-0.1-0.1c0,0-0.1,0-0.1-0.1
			c0,0-0.1,0-0.1,0c-0.1,0-0.2,0-0.3,0c0,0-0.1,0-0.1,0c0,0-0.1,0-0.1,0.1c0,0-0.1,0.1-0.1,0.1c0,0-0.1,0.1-0.1,0.1
			c0,0,0,0.1-0.1,0.1c0,0,0,0.1,0,0.1c0,0,0,0.1,0,0.1c0,0,0,0.1,0,0.1c0,0,0,0.1,0,0.1c0,0,0,0.1,0.1,0.1c0,0,0.1,0.1,0.1,0.1
			c0.1,0.1,0.3,0.2,0.5,0.2c0,0,0.1,0,0.1,0c0,0,0.1,0,0.1,0c0,0,0.1,0,0.1-0.1c0,0,0.1-0.1,0.1-0.1c0,0,0.1-0.1,0.1-0.1
			c0,0,0-0.1,0.1-0.1c0,0,0-0.1,0-0.1c0,0,0-0.1,0-0.1C15.3,10.1,15.3,10.1,15.3,10.1z"/>
	</g>
</g>
</svg>
