<?xml version="1.0" encoding="utf-8"?>
<!-- Generator: Adobe Illustrator 21.0.0, SVG Export Plug-In . SVG Version: 6.00 Build 0)  -->
<svg version="1.1" id="Layer_1" xmlns="http://www.w3.org/2000/svg" xmlns:xlink="http://www.w3.org/1999/xlink" x="0px" y="0px"
	 viewBox="0 0 40 45.8" style="enable-background:new 0 0 40 45.8;" xml:space="preserve">
<style type="text/css">
	.st0{fill:#6D6E71;}
	.st1{fill:none;stroke:#6D6E71;stroke-width:0.1482;stroke-miterlimit:10;}
	.st2{fill:none;stroke:#6D6E71;stroke-width:0.1482;stroke-miterlimit:10;stroke-dasharray:1.7552,1.7552,1.7552,1.7552;}
	.st3{fill:#0094A8;}
	.st4{enable-background:new    ;}
	.st5{fill:#FFFFFF;}
	.st6{fill:#2E2D2C;}
	.st7{fill:none;stroke:#6D6E71;stroke-width:1.1812;stroke-linecap:round;stroke-miterlimit:10;}
</style>
<g>
	<g>
		<ellipse transform="matrix(0.8421 -0.5393 0.5393 0.8421 -0.6428 14.8324)" class="st0" cx="25" cy="8.5" rx="0.2" ry="0.2"/>
		<ellipse transform="matrix(0.8421 -0.5393 0.5393 0.8421 4.4729 19.897)" class="st0" cx="36.2" cy="2.3" rx="0.1" ry="0.1"/>
		<g>
			<g>
				<path class="st1" d="M25,8.5c0,0,1,0.1,2.4-0.1"/>
				<path class="st2" d="M29.1,8c1.7-0.5,3.6-1.4,5.2-3.1"/>
				<path class="st1" d="M34.9,4.2c0.5-0.6,0.9-1.2,1.3-2"/>
			</g>
		</g>
	</g>
</g>
<g>
	<g>
		<path class="st3" d="M28.5,26.3l-6.9,6.6c-2.6,2.5-6.6,2.4-9.2,0l-6.7-6.5c-1.3-1.3-2-3-2-4.8V8.8c0-3.7,3-6.7,6.7-6.7H24
			c3.7,0,6.7,3,6.7,6.7v12.7C30.6,23.3,29.9,25,28.5,26.3z"/>
	</g>
	<g>
		<g class="st4">
			<path class="st5" d="M13.5,16.4c0,0.4-0.1,0.8-0.2,1.2s-0.3,0.7-0.5,0.9c-0.2,0.3-0.5,0.5-0.8,0.6c-0.3,0.1-0.6,0.2-1,0.2
				c-0.4,0-0.7-0.1-1-0.2c-0.3-0.1-0.6-0.3-0.8-0.6c-0.2-0.3-0.4-0.6-0.5-0.9s-0.2-0.8-0.2-1.2c0-0.4,0.1-0.8,0.2-1.2
				s0.3-0.7,0.5-0.9c0.2-0.3,0.5-0.5,0.8-0.6c0.3-0.1,0.6-0.2,1-0.2c0.4,0,0.7,0.1,1,0.2s0.6,0.4,0.8,0.6c0.2,0.3,0.4,0.6,0.5,0.9
				S13.5,15.9,13.5,16.4z M12.2,16.4c0-0.3,0-0.5-0.1-0.7c-0.1-0.2-0.1-0.4-0.2-0.6c-0.1-0.2-0.2-0.3-0.4-0.4s-0.3-0.1-0.5-0.1
				c-0.2,0-0.3,0-0.5,0.1s-0.3,0.2-0.4,0.4c-0.1,0.2-0.2,0.3-0.2,0.6c-0.1,0.2-0.1,0.5-0.1,0.7s0,0.5,0.1,0.7
				c0.1,0.2,0.1,0.4,0.2,0.6c0.1,0.2,0.2,0.3,0.4,0.4c0.1,0.1,0.3,0.1,0.5,0.1c0.2,0,0.3,0,0.5-0.1c0.1-0.1,0.3-0.2,0.4-0.4
				c0.1-0.2,0.2-0.3,0.2-0.6C12.2,16.9,12.2,16.6,12.2,16.4z"/>
			<path class="st5" d="M16.8,16.1c0.3,0,0.6,0.1,0.9,0.2c0.3,0.1,0.5,0.3,0.7,0.5c0.2,0.2,0.4,0.4,0.5,0.7c0.1,0.3,0.2,0.6,0.2,0.9
				c0,0.4-0.1,0.7-0.2,1c-0.1,0.3-0.3,0.5-0.5,0.7s-0.5,0.4-0.8,0.5c-0.3,0.1-0.6,0.2-1,0.2c-0.5,0-1-0.1-1.4-0.3
				c-0.4-0.2-0.7-0.5-0.9-0.9l0.7-0.8c0.2,0.3,0.4,0.5,0.7,0.6c0.3,0.1,0.6,0.2,0.8,0.2c0.4,0,0.6-0.1,0.9-0.3s0.3-0.5,0.3-0.8
				c0-0.3-0.1-0.6-0.3-0.8c-0.2-0.2-0.5-0.3-0.8-0.3c-0.2,0-0.4,0-0.6,0.1c-0.2,0.1-0.3,0.2-0.4,0.4h-1.1c0,0,0-0.1,0-0.2
				c0-0.1,0.1-0.3,0.1-0.5c0-0.2,0.1-0.4,0.1-0.7s0.1-0.5,0.1-0.7c0.1-0.6,0.2-1.3,0.4-2h3.4v1.2h-2.5l-0.3,1.5
				c0.1-0.1,0.2-0.2,0.3-0.2S16.6,16.1,16.8,16.1z"/>
		</g>
	</g>
	<path class="st3" d="M18.3,43.1L18.3,43.1c-0.8,0.8-2,0.8-2.7,0l0,0c-0.8-0.8-0.8-2,0-2.7l0,0c0.8-0.8,2-0.8,2.7,0l0,0
		C19,41.1,19,42.3,18.3,43.1z"/>
	<g>
		<g>
			<g>
				<path class="st6" d="M24.8,17.6c-0.4,0-0.8,0.4-0.8,0.8v0.1c0,0.4,0.4,0.7,0.8,0.7s0.8-0.3,0.8-0.7c0,0,0,0,0-0.1
					C25.6,17.9,25.2,17.6,24.8,17.6z M24.4,18.1l0.2,0.2c0,0,0,0,0,0.1h-0.2C24.3,18.2,24.3,18.1,24.4,18.1z M24.3,18.4h0.2
					c0,0,0,0,0,0.1l-0.2,0.2C24.3,18.6,24.3,18.5,24.3,18.4z M24.7,18.9c-0.1,0-0.2,0-0.2-0.1l0.2-0.2c0,0,0,0,0.1,0v0.3H24.7z
					 M24.7,18.1L24.7,18.1L24.5,18c0.1-0.1,0.1-0.1,0.2-0.1V18.1z M24.9,17.9c0.1,0,0.2,0,0.2,0.1l-0.2,0.2c0,0,0,0-0.1,0L24.9,17.9
					L24.9,17.9z M24.9,18.9v-0.2c0,0,0,0,0.1,0l0.2,0.2C25,18.8,24.9,18.8,24.9,18.9z M25.2,18.7L25,18.5c0,0,0,0,0-0.1h0.2
					C25.3,18.5,25.2,18.6,25.2,18.7z M25.1,18.3C25,18.3,25,18.2,25.1,18.3l0.1-0.2c0.1,0.1,0.1,0.1,0.1,0.2H25.1L25.1,18.3z"/>
				<path class="st6" d="M31.4,17.6c-0.4,0-0.8,0.4-0.8,0.8v0.1c0,0.4,0.4,0.7,0.8,0.7s0.8-0.3,0.8-0.7c0,0,0,0,0-0.1
					C32.2,17.9,31.9,17.6,31.4,17.6z M31,18.1l0.2,0.2c0,0,0,0,0,0.1H31C30.9,18.2,31,18.1,31,18.1z M30.9,18.4h0.2c0,0,0,0,0,0.1
					L31,18.7C31,18.6,30.9,18.5,30.9,18.4z M31.3,18.9c-0.1,0-0.2,0-0.2-0.1l0.2-0.2c0,0,0,0,0.1,0v0.3H31.3z M31.3,18.1L31.3,18.1
					L31.1,18c0.1-0.1,0.1-0.1,0.2-0.1C31.3,17.9,31.3,18.1,31.3,18.1z M31.5,17.9c0.1,0,0.2,0,0.2,0.1l-0.2,0.2c0,0,0,0-0.1,0
					C31.5,18.1,31.5,17.9,31.5,17.9z M31.5,18.9v-0.2c0,0,0,0,0.1,0l0.2,0.2C31.7,18.8,31.6,18.8,31.5,18.9z M31.8,18.7l-0.2-0.2
					c0,0,0,0,0-0.1h0.2C31.9,18.5,31.9,18.6,31.8,18.7z M31.7,18.3C31.7,18.3,31.7,18.2,31.7,18.3l0.1-0.2c0.1,0.1,0.1,0.1,0.1,0.2
					H31.7L31.7,18.3z"/>
				<path class="st6" d="M33.3,17.1v-0.6c0-0.1-0.1-0.2-0.2-0.2c-0.2,0-0.6-0.1-0.8-0.2C32,16,31,15.6,30.7,15.5
					c-0.3-0.1-1.9-0.5-3.4,0c-0.3,0.1-1.4,0.6-2,0.9c-0.2,0-2.1,0.4-2.2,0.7c-0.1,0.3-0.1,0.4-0.2,0.5c0,0.1,0,0.4,0.1,0.6
					c0.1,0.1,0.4,0.1,0.8,0.2c0,0,0,0,0-0.1v-0.1c0-0.5,0.4-1,1-1s1,0.4,1,1v0.1c0,0.1,0,0.1,0,0.2l0,0l4.8-0.1l0,0v-0.1
					c0-0.5,0.4-1,1-1c0.6,0,1,0.4,1,1l0,0l0,0l0.8-0.2c0,0,0.3-0.2,0.3-0.6C33.5,17.3,33.3,17.1,33.3,17.1z M28.6,16.6l-1.8,0.1
					c0-0.3-0.1-0.3-0.1-0.3c0.7-0.6,2.1-0.7,2.1-0.7L28.6,16.6z M30.6,16.5L29,16.6l0.1-0.9c0.8,0,1.3,0.2,1.3,0.2l0.2,0.4V16.5z
					 M31.5,16.5H31l-0.5-0.6c0.3,0.1,0.6,0.3,0.8,0.4C31.5,16.3,31.5,16.4,31.5,16.5z"/>
			</g>
		</g>
	</g>
	<g>
		<g>
			<path class="st7" d="M29.4,26.9l-7.4,7c-2.8,2.6-7.1,2.6-9.9-0.1l-7.2-7"/>
		</g>
		<line class="st7" x1="17.1" y1="35.9" x2="17.1" y2="38.4"/>
	</g>
</g>
</svg>
