<?xml version="1.0" encoding="utf-8"?>
<!-- Generator: Adobe Illustrator 21.0.0, SVG Export Plug-In . SVG Version: 6.00 Build 0)  -->
<svg version="1.1" id="Layer_1" xmlns="http://www.w3.org/2000/svg" xmlns:xlink="http://www.w3.org/1999/xlink" x="0px" y="0px"
	 viewBox="0 0 40 45.8" style="enable-background:new 0 0 40 45.8;" xml:space="preserve">
<style type="text/css">
	.st0{fill:#B9E6EB;}
	.st1{enable-background:new    ;}
	.st2{fill:#2A2A26;}
	.st3{fill:none;stroke:#6D6E71;stroke-width:1.1812;stroke-linecap:round;stroke-miterlimit:10;}
	.st4{fill:#6D6E71;}
	.st5{fill:none;stroke:#6D6E71;stroke-width:0.2612;stroke-miterlimit:10;}
	.st6{fill:none;stroke:#6D6E71;stroke-width:0.2612;stroke-miterlimit:10;stroke-dasharray:3.7924,3.7924,3.7924,3.7924;}
</style>
<g>
	<g>
		<path class="st0" d="M30.1,27.4l-7,6.6c-2.6,2.5-6.7,2.4-9.2,0l-6.8-6.5c-1.3-1.3-2-3-2-4.8V9.9c0-3.7,3-6.7,6.7-6.7h13.7
			c3.7,0,6.7,3,6.7,6.7v12.7C32.2,24.4,31.4,26.2,30.1,27.4z"/>
	</g>
	<g>
		<g class="st1">
			<path class="st2" d="M16.1,17.5c0,0.4-0.1,0.8-0.2,1.2s-0.3,0.7-0.5,0.9s-0.5,0.5-0.8,0.6s-0.6,0.2-1,0.2c-0.4,0-0.7-0.1-1-0.2
				c-0.3-0.1-0.6-0.4-0.8-0.6s-0.4-0.6-0.5-0.9S11,17.9,11,17.5s0.1-0.8,0.2-1.2s0.3-0.7,0.5-0.9s0.5-0.5,0.8-0.6
				c0.3-0.1,0.6-0.2,1-0.2c0.4,0,0.7,0.1,1,0.2c0.3,0.2,0.6,0.4,0.8,0.6s0.4,0.6,0.5,0.9S16.1,17,16.1,17.5z M14.8,17.5
				c0-0.3,0-0.5-0.1-0.7c-0.1-0.2-0.1-0.4-0.2-0.6s-0.2-0.3-0.4-0.4c-0.1-0.1-0.3-0.1-0.5-0.1c-0.2,0-0.3,0-0.5,0.1
				c-0.1,0.1-0.3,0.2-0.4,0.4s-0.2,0.3-0.2,0.6c-0.1,0.2-0.1,0.5-0.1,0.7c0,0.3,0,0.5,0.1,0.7s0.1,0.4,0.2,0.6s0.2,0.3,0.4,0.4
				s0.3,0.1,0.5,0.1c0.2,0,0.3,0,0.5-0.1s0.3-0.2,0.4-0.4s0.2-0.3,0.2-0.6S14.8,17.7,14.8,17.5z"/>
			<path class="st2" d="M20.3,18c0.4,0.1,0.7,0.3,1,0.6c0.3,0.3,0.4,0.7,0.4,1.2c0,0.3-0.1,0.6-0.2,0.8c-0.1,0.2-0.3,0.5-0.5,0.6
				s-0.5,0.3-0.8,0.4s-0.7,0.1-1.1,0.1c-0.5,0-0.9-0.1-1.3-0.2s-0.7-0.4-1-0.7l0.7-0.9c0.2,0.2,0.4,0.4,0.6,0.5
				c0.2,0.1,0.5,0.2,0.9,0.2c0.4,0,0.7-0.1,0.9-0.2s0.3-0.4,0.3-0.7c0-0.3-0.1-0.6-0.4-0.8c-0.2-0.2-0.6-0.3-1.1-0.3h-0.3v-1h0.3
				c0.4,0,0.7-0.1,0.9-0.3c0.2-0.2,0.3-0.4,0.3-0.7c0-0.3-0.1-0.5-0.3-0.6c-0.2-0.1-0.4-0.2-0.7-0.2c-0.3,0-0.6,0.1-0.8,0.2
				c-0.2,0.1-0.4,0.3-0.6,0.6l-0.8-0.9c0.1-0.1,0.2-0.3,0.4-0.4c0.2-0.1,0.3-0.2,0.6-0.3s0.4-0.2,0.7-0.2c0.2,0,0.5-0.1,0.7-0.1
				c0.3,0,0.6,0,0.9,0.1c0.3,0.1,0.5,0.2,0.7,0.4c0.2,0.2,0.4,0.3,0.5,0.5c0.1,0.2,0.2,0.4,0.2,0.7c0,0.2,0,0.4-0.1,0.6
				c-0.1,0.2-0.1,0.3-0.3,0.5c-0.1,0.1-0.2,0.3-0.4,0.4S20.5,18,20.3,18z"/>
		</g>
	</g>
	<path class="st0" d="M19.8,44.2L19.8,44.2c-0.8,0.8-2,0.8-2.7,0l0,0c-0.8-0.8-0.8-2,0-2.7l0,0c0.8-0.8,2-0.8,2.7,0l0,0
		C20.5,42.3,20.5,43.5,19.8,44.2z"/>
	<g>
		<g>
			<path class="st3" d="M31.1,28l-7.5,7.1c-2.8,2.6-7.2,2.6-9.9-0.1l-7.3-7"/>
		</g>
		<line class="st3" x1="18.8" y1="37.1" x2="18.8" y2="39.5"/>
	</g>
	<g>
		<g>
			<circle class="st2" cx="27.5" cy="19.2" r="0.5"/>
		</g>
	</g>
	<g>
		<g>
			<path class="st2" d="M27.5,19.7c-0.6,0-1,0.5-1,1h2C28.6,20.2,28.1,19.7,27.5,19.7z"/>
		</g>
	</g>
	<g>
		<g>
			<path class="st2" d="M31.3,20.2c-0.1,0-0.3,0.1-0.3,0.3c0,0.1,0.1,0.3,0.3,0.3s0.3-0.1,0.3-0.3C31.6,20.3,31.5,20.2,31.3,20.2z"
				/>
		</g>
	</g>
	<g>
		<g>
			<path class="st2" d="M31.8,16.5h-6.7c-0.4,0-0.8,0.3-0.8,0.8v4.2c0,0.4,0.3,0.8,0.8,0.8h7.1c0.4,0,0.8-0.3,0.8-0.8v-3.8
				L31.8,16.5z M31.3,18.5c0.2,0,0.3,0.2,0.3,0.3c0,0.2-0.2,0.3-0.3,0.3c-0.2,0-0.3-0.2-0.3-0.3S31.2,18.5,31.3,18.5z M29.7,21.2
				h-4.4V18h4.4V21.2z M31.3,21.2c-0.4,0-0.8-0.3-0.8-0.8s0.3-0.8,0.8-0.8s0.8,0.3,0.8,0.8S31.8,21.2,31.3,21.2z"/>
		</g>
	</g>
	<g>
		<g>
			<polygon class="st2" points="28.8,15 26.4,15 26.2,16 29.1,16 			"/>
		</g>
	</g>
</g>
<g>
	<g>
		<ellipse transform="matrix(0.9778 -0.2096 0.2096 0.9778 0.2555 7.7949)" class="st4" cx="36.9" cy="2.7" rx="0.3" ry="0.3"/>
		<ellipse transform="matrix(0.9778 -0.2096 0.2096 0.9778 -0.9354 3.194)" class="st4" cx="14.6" cy="6" rx="0.3" ry="0.3"/>
		<g>
			<g>
				<path class="st5" d="M36.9,2.7c0,0-0.8-0.4-2.2-0.8"/>
				<path class="st6" d="M30.9,1.1c-3.5-0.4-8.2-0.2-12.8,2.4"/>
				<path class="st5" d="M16.5,4.5c-0.6,0.5-1.2,1-1.9,1.5"/>
			</g>
		</g>
	</g>
</g>
</svg>
