<?xml version="1.0" encoding="utf-8"?>
<!-- Generator: Adobe Illustrator 21.0.0, SVG Export Plug-In . SVG Version: 6.00 Build 0)  -->
<svg version="1.1" id="Layer_1" xmlns="http://www.w3.org/2000/svg" xmlns:xlink="http://www.w3.org/1999/xlink" x="0px" y="0px"
	 viewBox="0 0 40 45.8" style="enable-background:new 0 0 40 45.8;" xml:space="preserve">
<style type="text/css">
	.st0{fill:#0094A8;}
	.st1{enable-background:new    ;}
	.st2{fill:#FFFFFF;}
	.st3{fill:none;stroke:#6D6E71;stroke-width:0.8719;stroke-linecap:round;stroke-miterlimit:10;}
	.st4{fill:none;stroke:#6D6E71;stroke-width:1.1812;stroke-linecap:round;stroke-miterlimit:10;}
	.st5{fill:#2A2928;}
	.st6{fill:#6D6E71;}
	.st7{fill:none;stroke:#6D6E71;stroke-width:0.2945;stroke-miterlimit:10;}
	.st8{fill:none;stroke:#6D6E71;stroke-width:0.2945;stroke-miterlimit:10;stroke-dasharray:3.8217,3.8217,3.8217,3.8217;}
</style>
<g>
	<g>
		<path class="st0" d="M30.9,28.5l-6.2,5.9c-2.3,2.2-6,2.2-8.2,0l-6-5.8c-1.2-1.1-1.8-2.7-1.8-4.3V12.8c0-3.3,2.7-6,6-6h12.2
			c3.3,0,6,2.7,6,6v11.4C32.8,25.8,32.1,27.4,30.9,28.5z"/>
	</g>
	<g>
		<g class="st1">
			<path class="st2" d="M17.7,19.6c0,0.4-0.1,0.7-0.2,1.1s-0.3,0.6-0.5,0.8s-0.4,0.4-0.7,0.5c-0.3,0.1-0.6,0.2-0.9,0.2
				c-0.3,0-0.6-0.1-0.9-0.2c-0.3-0.1-0.5-0.3-0.7-0.5c-0.2-0.2-0.4-0.5-0.5-0.8s-0.2-0.7-0.2-1.1s0.1-0.7,0.2-1.1
				c0.1-0.3,0.3-0.6,0.5-0.8c0.2-0.2,0.4-0.4,0.7-0.6c0.3-0.1,0.6-0.2,0.9-0.2c0.3,0,0.6,0.1,0.9,0.2s0.5,0.3,0.7,0.6
				s0.4,0.5,0.5,0.8C17.7,18.8,17.7,19.2,17.7,19.6z M16.6,19.6c0-0.2,0-0.4-0.1-0.6c-0.1-0.2-0.1-0.4-0.2-0.5
				c-0.1-0.1-0.2-0.2-0.3-0.3C15.8,18,15.7,18,15.5,18c-0.2,0-0.3,0-0.4,0.1c-0.1,0.1-0.2,0.2-0.3,0.3c-0.1,0.1-0.2,0.3-0.2,0.5
				c-0.1,0.2-0.1,0.4-0.1,0.6s0,0.4,0.1,0.6c0.1,0.2,0.1,0.4,0.2,0.5c0.1,0.1,0.2,0.2,0.3,0.3c0.1,0.1,0.3,0.1,0.4,0.1
				c0.2,0,0.3,0,0.4-0.1c0.1-0.1,0.2-0.2,0.3-0.3c0.1-0.1,0.2-0.3,0.2-0.5C16.5,20,16.6,19.8,16.6,19.6z"/>
			<path class="st2" d="M22.3,21.1v1.1h-3.5v-1.1H20v-2.6c-0.1,0.1-0.1,0.1-0.2,0.2c-0.1,0.1-0.2,0.1-0.4,0.2S19.1,19,18.9,19
				c-0.1,0-0.3,0.1-0.4,0.1V18c0.1,0,0.2,0,0.4-0.1c0.2-0.1,0.3-0.1,0.4-0.2c0.1-0.1,0.3-0.2,0.4-0.3s0.2-0.2,0.2-0.2h1.2v3.9H22.3z
				"/>
		</g>
	</g>
	<path class="st0" d="M21.7,43.5L21.7,43.5c-0.7,0.7-1.8,0.7-2.5,0l0,0c-0.7-0.7-0.7-1.8,0-2.5l0,0c0.7-0.7,1.8-0.7,2.5,0l0,0
		C22.4,41.7,22.4,42.8,21.7,43.5z"/>
	<g>
		<g>
			<path class="st3" d="M36.6,16.1c-0.3-0.6-0.6-1.1-1.1-1.6c-1-1-2.4-1.6-3.9-1.6l0,0l0,0l0,0c-1.5,0-2.9,0.6-3.9,1.6
				c-0.5,0.5-0.8,1-1.1,1.6c-0.3,0.7-0.5,1.4-0.5,2.2l0,0l0,0l0,0c0,1.5,0.6,2.9,1.6,3.9s2.4,1.6,3.9,1.6l0,0l0,0l0,0
				c1.5,0,2.9-0.6,3.9-1.6s1.6-2.4,1.6-3.9l0,0l0,0l0,0C37.1,17.6,36.9,16.8,36.6,16.1L36.6,16.1z"/>
		</g>
	</g>
	<g>
		<g>
			<path class="st4" d="M31.7,29L25,35.3c-2.5,2.4-6.4,2.3-8.9,0L9.7,29"/>
		</g>
		<line class="st4" x1="20.7" y1="37.1" x2="20.7" y2="39.3"/>
	</g>
	<g>
		<g id="Layer_2_29_">
			<path class="st5" d="M34.8,18.7h-0.6c0,0-0.1,0-0.1,0.1L33.9,19v0.1c0,0.1-0.2,0.5-0.9,0.5c-0.9,0-0.8-1.4-0.8-1.7v-0.1L31.5,17
				l-0.1-0.1h-0.3H31l-0.4-0.5h-0.1H30c0,0-0.1,0-0.1,0.1v0.1l0,0h-0.3h-0.1L29,16.2h-0.1h-0.6c0,0-0.1,0,0,0.1l0.3,1.2v0.1h-0.2
				l0,0l0.4,0.4l0.1,0.1l0.6,1.1h0.1l0.1-0.1c0,0,0,0,0-0.1l-0.9-2v-0.1H29c0,0,0.1,0,0.1,0.1l1.1,1.6v0.1l0.2,0.7
				c0,0,0,0.1,0.1,0.1l1.1,0.7h0.1l1-0.2h0.1l0.5,0.3h0.1l0.1-0.1h0.1h0.3c0,0,0,0,0-0.1l0-0.1v-0.1l0.7-0.7c0,0,0-0.1,0.1-0.1
				L34.8,18.7L34.8,18.7z"/>
		</g>
	</g>
</g>
<g>
	<ellipse transform="matrix(0.3975 -0.9176 0.9176 0.3975 2.8 28.7643)" class="st6" cx="23.3" cy="12.2" rx="0.3" ry="0.3"/>
	<ellipse transform="matrix(0.3975 -0.9176 0.9176 0.3975 1.445907e-02 4.0791)" class="st6" cx="3.1" cy="2" rx="0.3" ry="0.3"/>
	<g>
		<g>
			<path class="st7" d="M23.3,12.3c0,0-0.4-0.8-1.3-1.9"/>
			<path class="st8" d="M19.3,7.5c-2.6-2.4-6.6-5-11.9-5.5"/>
			<path class="st7" d="M5.5,1.9C4.7,1.9,4,1.9,3.1,2"/>
		</g>
	</g>
</g>
</svg>
