<?xml version="1.0" encoding="utf-8"?>
<!-- Generator: Adobe Illustrator 21.0.0, SVG Export Plug-In . SVG Version: 6.00 Build 0)  -->
<svg version="1.1" id="Layer_1" xmlns="http://www.w3.org/2000/svg" xmlns:xlink="http://www.w3.org/1999/xlink" x="0px" y="0px"
	 viewBox="0 0 40 40.2" style="enable-background:new 0 0 40 40.2;" xml:space="preserve">
<style type="text/css">
	.st0{fill:#2E2D2C;}
</style>
<g>
	<path class="st0" d="M30.3,3.1H9.7C7.6,3.1,5.8,5,5.8,7.3v22.4c0,1.5,0.8,2.9,1.9,3.6v2.4c0,0.8,1.3,1.4,2.8,1.4
		c1.6,0,2.8-0.6,2.8-1.4v-1.8h3.5v0h7.2v0h2.7v1.8c0,0.8,1.3,1.4,2.8,1.4s2.8-0.6,2.8-1.4v-2.5c1-0.7,1.7-2,1.7-3.5V7.3
		C34.2,5,32.4,3.1,30.3,3.1z M14,4.9H26V6H14V4.9z M8.9,27.1v-2.8h7.5v2.8H8.9z M16.9,33.5v-2.2h7.2v2.2H16.9z M31.5,27.1H24v-2.8
		h7.5V27.1z M31.8,17.5c0,0.3-0.5,0.5-1.1,0.5H9.3c-0.6,0-1.1-0.2-1.1-0.5V7.6c0-0.3,0.5-0.5,1.1-0.5h21.4c0.6,0,1.1,0.2,1.1,0.5
		V17.5z"/>
</g>
</svg>
