<?xml version="1.0" encoding="utf-8"?>
<!-- Generator: Adobe Illustrator 21.0.0, SVG Export Plug-In . SVG Version: 6.00 Build 0)  -->
<svg version="1.1" id="Layer_1" xmlns="http://www.w3.org/2000/svg" xmlns:xlink="http://www.w3.org/1999/xlink" x="0px" y="0px"
	 viewBox="0 0 40 37.3" style="enable-background:new 0 0 40 37.3;" xml:space="preserve">
<style type="text/css">
	.st0{fill:#2E2D2C;}
</style>
<g>
	<path class="st0" d="M21,25.9c0.1,0.1,0.3,0.2,0.4,0.2c0.1,0,0.3-0.1,0.4-0.2l1.9-1.9l1.9,1.9c0.1,0.1,0.3,0.2,0.4,0.2
		s0.3-0.1,0.4-0.2c0.2-0.2,0.2-0.6,0-0.8l-1.9-1.9l1.9-1.9c0.2-0.2,0.2-0.6,0-0.8c-0.2-0.2-0.6-0.2-0.8,0l-1.9,1.9l-1.9-1.9
		c-0.2-0.2-0.6-0.2-0.8,0c-0.2,0.2-0.2,0.6,0,0.8l1.9,1.9L21,25.1C20.7,25.3,20.7,25.7,21,25.9z"/>
	<path class="st0" d="M18,2.2c-0.3,0-0.6,0.3-0.6,0.6s0.3,0.6,0.6,0.6c0.7,0,1.4,0.5,1.6,1.1h1.2C20.5,3.1,19.3,2.2,18,2.2z"/>
	<path class="st0" d="M21.4,2.2c-0.3,0-0.6,0.3-0.6,0.6s0.3,0.6,0.6,0.6c0.7,0,1.4,0.5,1.6,1.1h1.2C23.9,3.1,22.7,2.2,21.4,2.2z"/>
	<path class="st0" d="M24.8,2.2c-0.3,0-0.6,0.3-0.6,0.6s0.3,0.6,0.6,0.6c0.7,0,1.4,0.5,1.6,1.1h1.2C27.3,3.1,26.1,2.2,24.8,2.2z"/>
	<path class="st0" d="M27.6,4.4c0,0.2,0.1,0.4,0.1,0.6c0,1.6-1.3,2.8-2.8,2.8c-0.3,0-0.6-0.3-0.6-0.6s0.3-0.6,0.6-0.6
		c0.9,0,1.7-0.8,1.7-1.7c0-0.2,0-0.4-0.1-0.6h-2.2c0,0.2,0.1,0.4,0.1,0.6c0,1.6-1.3,2.8-2.8,2.8c-0.3,0-0.6-0.3-0.6-0.6
		s0.3-0.6,0.6-0.6c0.9,0,1.7-0.8,1.7-1.7c0-0.2,0-0.4-0.1-0.6h-2.2c0,0.2,0.1,0.4,0.1,0.6c0,1.6-1.3,2.8-2.8,2.8
		c-0.3,0-0.6-0.3-0.6-0.6s0.3-0.6,0.6-0.6c0.9,0,1.7-0.8,1.7-1.7c0-0.2,0-0.4-0.1-0.6h-2.2c0,0.2,0.1,0.4,0.1,0.6
		c0,1.6-1.3,2.8-2.8,2.8c-0.3,0-0.6-0.3-0.6-0.6s0.3-0.6,0.6-0.6c0.9,0,1.7-0.8,1.7-1.7c0-0.2,0-0.4-0.1-0.6h-2.7h-0.5
		c0.2-0.7,0.9-1.1,1.6-1.1c0.7,0,1.4,0.5,1.6,1.1h1.2c-0.3-1.3-1.4-2.3-2.8-2.3s-2.5,1-2.8,2.3h-0.6h-8v6.3v8v1.1v6.8v1.1v8h8h1.1
		h6.8h1.1H27h1.1h8v-8v-1.1v-6.8v-1.1v-8V4.4H27.6z M11.1,34.6H4.3v-6.8h6.8V34.6z M11.1,26.6H4.3v-6.8h6.8V26.6z M11.1,18.7H4.3
		v-6.8h6.8V18.7z M19.1,34.6h-6.8v-6.8h6.8V34.6z M19.1,26.6h-6.8v-6.8h6.8V26.6z M19.1,18.7h-6.8v-6.8h6.8V18.7z M27,34.6h-6.8
		v-6.8H27V34.6z M27,26.6h-6.8v-6.8H27V26.6z M27,18.7h-6.8v-6.8H27V18.7z M35,34.6h-6.8v-6.8H35V34.6z M35,26.6h-6.8v-6.8H35V26.6z
		 M35,18.7h-6.8v-6.8H35V18.7z"/>
</g>
</svg>
