<?xml version="1.0" encoding="utf-8"?>
<!-- Generator: Adobe Illustrator 21.0.0, SVG Export Plug-In . SVG Version: 6.00 Build 0)  -->
<svg version="1.1" id="Layer_1" xmlns="http://www.w3.org/2000/svg" xmlns:xlink="http://www.w3.org/1999/xlink" x="0px" y="0px"
	 viewBox="0 0 40 40" style="enable-background:new 0 0 40 40;" xml:space="preserve">
<style type="text/css">
	.st0{fill:#2E2D2C;}
</style>
<g>
	<g>
		<path class="st0" d="M20,0.5C9.3,0.5,0.5,9.3,0.5,20c0,10.7,8.7,19.5,19.5,19.5c10.7,0,19.5-8.7,19.5-19.5
			C39.5,9.3,30.7,0.5,20,0.5z M24.8,20.7h-3.2c0,5.1,0,11.3,0,11.3H17c0,0,0-6.2,0-11.3h-2.2v-4H17v-2.6c0-1.8,0.9-4.7,4.7-4.7
			l3.5,0v3.9c0,0-2.1,0-2.5,0c-0.4,0-1,0.2-1,1.1v2.3h3.6L24.8,20.7z"/>
	</g>
</g>
</svg>
