<?xml version="1.0" encoding="utf-8"?>
<!-- Generator: Adobe Illustrator 21.0.0, SVG Export Plug-In . SVG Version: 6.00 Build 0)  -->
<svg version="1.1" id="Layer_1" xmlns="http://www.w3.org/2000/svg" xmlns:xlink="http://www.w3.org/1999/xlink" x="0px" y="0px"
	 viewBox="0 0 40 37.3" style="enable-background:new 0 0 40 37.3;" xml:space="preserve">
<style type="text/css">
	.st0{fill:#9BD4DC;}
</style>
<g>
	<path class="st0" d="M35,13.4c-1.2,0-2.1,0.9-2.1,2.1c0,1.2,0.9,2.1,2.1,2.1c1.2,0,2.1-0.9,2.1-2.1C37.1,14.4,36.2,13.4,35,13.4z
		 M4.8,13.4c-1.2,0-2.1,0.9-2.1,2.1c0,1.2,0.9,2.1,2.1,2.1c1.2,0,2.1-0.9,2.1-2.1C6.9,14.4,5.9,13.4,4.8,13.4z M28.8,9.6
		c-1.7,0-3.1,1.4-3.1,3.1c0,1.7,1.4,3.1,3.1,3.1c1.7,0,3.1-1.4,3.1-3.1C31.9,11,30.5,9.6,28.8,9.6z M38.5,28.7h-3.6v-6.6
		c0-1.1-0.3-2.2-0.9-3.1c0.3-0.1,0.6-0.2,1-0.2c1.9,0,3.5,1.6,3.5,3.5C38.5,22.3,38.5,28.7,38.5,28.7z M11,9.6
		c-1.7,0-3.1,1.4-3.1,3.1c0,1.7,1.4,3.1,3.1,3.1c1.7,0,3.1-1.4,3.1-3.1C14.2,11,12.8,9.6,11,9.6z M4.8,18.8c0.3,0,0.7,0.1,1,0.2
		c-0.5,0.9-0.9,2-0.9,3.1v6.6H1.3v-6.4C1.3,20.4,2.9,18.8,4.8,18.8z M19.9,3.3c-2.6,0-4.6,2.1-4.6,4.6c0,2.6,2.1,4.6,4.6,4.6
		c2.6,0,4.6-2.1,4.6-4.6C24.5,5.4,22.5,3.3,19.9,3.3z M33.8,31.1h-5.5v-10c0-1.4-0.4-2.7-0.9-3.8c0.4-0.1,0.9-0.2,1.4-0.2
		c2.8,0,5,2.2,5,5V31.1z M11.5,21.1v10H6v-9c0-2.8,2.2-5,5-5c0.5,0,1,0.1,1.4,0.2C11.8,18.4,11.5,19.7,11.5,21.1z M12.6,34h14.5
		V21.1c0-4-3.3-7.3-7.3-7.3c-4,0-7.3,3.3-7.3,7.3V34z"/>
</g>
</svg>
