<?xml version="1.0" encoding="utf-8"?>
<!-- Generator: Adobe Illustrator 21.0.0, SVG Export Plug-In . SVG Version: 6.00 Build 0)  -->
<svg version="1.1" id="Layer_1" xmlns="http://www.w3.org/2000/svg" xmlns:xlink="http://www.w3.org/1999/xlink" x="0px" y="0px"
	 viewBox="0 0 36.5 35.1" style="enable-background:new 0 0 36.5 35.1;" xml:space="preserve">
<style type="text/css">
	.st0{fill:#EEEEEE;}
</style>
<g>
	<path class="st0" d="M27.1,10.1c-0.7,0-1.2-0.6-1.2-1.2V6.3c0-0.7,0.6-1.2,1.2-1.2h2.5c0.7,0,1.2,0.6,1.2,1.2v2.5
		c0,0.7-0.6,1.2-1.2,1.2H27.1z"/>
	<path class="st0" d="M18.4,12.8c-0.9,0-1.7,0.3-2.4,0.7c0.2-0.1,0.5-0.1,0.7-0.1c1.3,0,2.4,1.1,2.4,2.4c0,1.3-1.1,2.4-2.4,2.4
		c-1.3,0-2.4-1.1-2.4-2.4c0-0.2,0-0.5,0.1-0.7c-0.4,0.7-0.7,1.5-0.7,2.4c0,2.6,2.1,4.7,4.7,4.7c2.6,0,4.7-2.1,4.7-4.7
		S21,12.8,18.4,12.8z"/>
	<g>
		<path class="st0" d="M18.4,10.1c4.1,0,7.4,3.3,7.4,7.4s-3.3,7.4-7.4,7.4c-4.1,0-7.4-3.3-7.4-7.4S14.3,10.1,18.4,10.1 M18.4,7.6
			c-5.5,0-9.9,4.5-9.9,9.9s4.5,9.9,9.9,9.9s9.9-4.5,9.9-9.9S23.9,7.6,18.4,7.6L18.4,7.6z"/>
	</g>
	<path class="st0" d="M28.5,1.4H8.4c-3.3,0-6,2.7-6,6v20.2c0,3.3,2.7,6,6,6h20.2c3.3,0,6-2.7,6-6V7.4C34.6,4.1,31.9,1.4,28.5,1.4z
		 M32.1,12.5H24c1.2,1.3,1.9,3.1,1.9,5c0,4.1-3.3,7.4-7.4,7.4c-4.1,0-7.4-3.3-7.4-7.4c0-1.9,0.7-3.6,1.9-5H4.8V7.4
		c0-2,1.6-3.6,3.6-3.6h20.2c2,0,3.6,1.6,3.6,3.6V12.5z"/>
</g>
</svg>
