<?xml version="1.0" encoding="utf-8"?>
<!-- Generator: Adobe Illustrator 21.0.0, SVG Export Plug-In . SVG Version: 6.00 Build 0)  -->
<svg version="1.1" id="Layer_1" xmlns="http://www.w3.org/2000/svg" xmlns:xlink="http://www.w3.org/1999/xlink" x="0px" y="0px"
	 viewBox="0 0 40 20.8" style="enable-background:new 0 0 40 20.8;" xml:space="preserve">
<style type="text/css">
	.st0{fill:#FFFFFF;}
</style>
<path class="st0" d="M23.2,7.9h-0.6h-8L14.2,9l-1.5,4.6c-0.1,0.4-0.7,0.4-0.9,0.1l-1.6-2.7l6.4-7h-4c0,0,0.7,0.1,1,0.2
	c0.2,0.1,0,0.3-0.1,0.4l-0.2,0.2l0,0l-6.1,6.6l2-6.2C9.5,4.5,9.1,4,8.5,4H3.8L3.1,5.9h3.6C6.9,5.9,7,6,7,6.1c0,0-2.8,8.3-2.9,8.9
	c-0.2,0.6-1,0.7-1.4,0.8h1.8l0,0h1c0.1,0,0.3-0.1,0.3-0.2l2.9-3.1c0,0,0.1,0,0.1,0l1.9,3c0.1,0.2,0.3,0.3,0.5,0.3l2.4,0
	c0.1,0,0.2-0.1,0.3-0.2l0.6-1.7l1.3-3.9c0-0.1,0.1-0.1,0.2-0.1h1.6c0.1,0,0.2,0.1,0.2,0.3l-1.2,3.8l-0.6,1.9h1.9l0.6-1.9l1.3-3.9
	c0-0.1,0.1-0.1,0.2-0.1h1.5c0.1,0,0.2,0.1,0.2,0.3l-2.2,7l0,0.1c0,0,0,0-0.1,0.1c-0.1,0.1-0.4,0.4-0.9,0.4h0.8l0,0h1.8l1.3-3.8L24,9
	C24.2,8.4,23.8,7.9,23.2,7.9"/>
<path class="st0" d="M28.3,7.6l0.6-2L29.8,3h-3c0,0,1,0,0.9,0.5L27,5.6l-0.6,2l-0.6,1.9l-0.8,2.4l-0.6,1.9L23,17.7h1.9l1.3-3.9
	l0.6-1.9l0.8-2.4L28.3,7.6z"/>
<path class="st0" d="M33.8,15.8c-0.2,0-0.3-0.2-0.2-0.4l1.3-3.9c0.2-0.6-0.2-1.2-0.9-1.2h-0.1h-2.5l1.5-4.4h-3c0,0,1,0,0.9,0.5
	c0,0,0,0.1,0,0.1l-1,3.1l-0.6,2l-0.6,1.9l-0.8,2.4l-0.6,1.9h1.9l0.6-1.9l1.1-3.5h1.5c0.2,0,0.4,0.2,0.3,0.5l-1,3.1l-0.3,0.8
	c-0.2,0.5,0.2,1.1,0.8,1.1h4.7l0.6-1.9H33.8z"/>
</svg>
