<?xml version="1.0" encoding="utf-8"?>
<!-- Generator: Adobe Illustrator 21.0.0, SVG Export Plug-In . SVG Version: 6.00 Build 0)  -->
<svg version="1.1" id="Layer_1" xmlns="http://www.w3.org/2000/svg" xmlns:xlink="http://www.w3.org/1999/xlink" x="0px" y="0px"
	 viewBox="0 0 302.5 161" style="enable-background:new 0 0 302.5 161;" xml:space="preserve">
<style type="text/css">
	.st0{fill:#0096A9;}
	.st1{fill:#FFFFFF;}
</style>
<g>
	<path id="XMLID_4_" class="st0" d="M178.8,46.9h-5h-68.9l-3.1,9.5l-13,39.1c-1.1,3.3-5.6,3.8-7.4,0.8L68,73.2l54.8-59.7H88.2
		c0,0,6.3,0.7,8.6,1.5c1.4,0.5,0.3,2.2-0.8,3.5l-1.4,1.6l0,0L42.7,76.4l17.2-53.5c1.5-4.6-1.9-9.4-6.8-9.4H12.5L7.1,29.8h31
		c1.2,0,2.1,1.2,1.7,2.4c0,0-23.6,71.2-25,76c-1.4,4.7-8.3,6.4-11.6,6.6H19l0,0h8.9c1.1,0,2.2-0.5,3-1.3l24.6-26.7
		c0.2-0.2,0.6-0.2,0.8,0.1l15.9,25.4c1,1.6,2.7,2.5,4.6,2.5h20.4c1.1,0,2-0.7,2.4-1.7l4.7-14.2l11.1-33.5c0.2-0.7,1-1.2,1.7-1.2
		h13.5c1.2,0,1.8,1.2,1.4,2.3l-10.5,32.4l-5.2,15.9h16.5l5.2-15.9l11-33.6c0.2-0.7,1.1-1.1,1.8-1.1H164c1.2,0,2.1,1.2,1.8,2.4
		l-19.1,59.7l-0.4,1c0,0,0,0.2-0.4,0.8c-0.9,1.3-3.3,3.5-7.9,3.7h7l0,0h15.8L171.6,99l14.2-42.5C187.1,51.7,183.7,46.9,178.8,46.9"
		/>
	<path id="XMLID_3_" class="st1" d="M222.4,44.7l5.5-16.8l7.4-22.6h-25.6c0,0,8.7,0.1,7.6,4.3l-6,18.3l-5.5,16.8l-5.4,16.6
		l-6.8,20.5l-5.4,16.6l-10.9,33.3h16.5l10.9-33.3l5.4-16.6l6.8-20.5L222.4,44.7z"/>
	<path id="XMLID_2_" class="st0" d="M269.4,115.1c-1.5-0.4-2.5-2-2-3.6l11-33.5c1.7-5-2.1-10.2-7.4-10.2h-1.2h-21.5l12.8-37.9h-25.7
		c0,0,8.7,0.1,7.6,4.3c-0.1,0.4-0.2,0.7-0.2,0.9L234,61.2L228.4,78L223,94.5l-6.7,20.5l-5.5,16.6h16.5l5.4-16.6l9.7-30.2h12.7
		c2.1,0,3.5,2,2.9,4l-8.4,26.2l-2.4,7.2c-1.5,4.6,1.9,9.4,6.8,9.4h40.3l5.5-16.6h-30.4V115.1z"/>
</g>
<g>
	<path class="st1" d="M11.5,146.6v9h-0.6v-4.3H5.2v4.3H4.6v-9h0.6v4.1h5.7v-4.1H11.5z"/>
	<path class="st1" d="M27.7,154.9v0.6h-6v-9h5.9v0.6h-5.2v3.5H27v0.6h-4.6v3.7L27.7,154.9L27.7,154.9z"/>
	<path class="st1" d="M36.6,151c0-0.5,0.1-1.1,0.3-1.6s0.5-1,0.8-1.4c0.4-0.4,0.8-0.8,1.3-1c0.5-0.3,1.1-0.4,1.8-0.4
		c0.8,0,1.5,0.2,2,0.5c0.6,0.4,1,0.8,1.3,1.4l-0.5,0.3c-0.2-0.3-0.3-0.6-0.6-0.8c-0.2-0.2-0.4-0.4-0.7-0.5c-0.2-0.1-0.5-0.2-0.8-0.3
		s-0.5-0.1-0.8-0.1c-0.6,0-1.1,0.1-1.5,0.3s-0.8,0.5-1.1,0.9s-0.5,0.8-0.7,1.3s-0.2,0.9-0.2,1.4s0.1,1,0.3,1.5s0.4,0.9,0.8,1.3
		c0.3,0.4,0.7,0.7,1.1,0.9c0.4,0.2,0.9,0.3,1.4,0.3c0.3,0,0.5,0,0.8-0.1s0.6-0.2,0.8-0.3c0.3-0.1,0.5-0.3,0.7-0.5s0.4-0.5,0.6-0.8
		l0.6,0.3c-0.2,0.3-0.4,0.6-0.6,0.9c-0.3,0.3-0.6,0.5-0.9,0.7c-0.3,0.2-0.7,0.3-1,0.4c-0.4,0.1-0.7,0.1-1.1,0.1
		c-0.6,0-1.2-0.1-1.7-0.4c-0.5-0.3-0.9-0.6-1.3-1.1c-0.4-0.4-0.7-0.9-0.9-1.5S36.6,151.6,36.6,151z"/>
	<path class="st1" d="M60.9,146.6v9h-0.6v-4.3h-5.7v4.3H54v-9h0.6v4.1h5.7v-4.1H60.9z"/>
	<path class="st1" d="M74.8,155.6c-0.6,0-1.2-0.1-1.7-0.4c-0.5-0.3-1-0.6-1.3-1c-0.4-0.4-0.7-0.9-0.9-1.5c-0.2-0.5-0.3-1.1-0.3-1.7
		c0-0.6,0.1-1.2,0.3-1.7c0.2-0.5,0.5-1,0.9-1.5c0.4-0.4,0.8-0.8,1.3-1s1.1-0.4,1.7-0.4s1.2,0.1,1.7,0.4c0.5,0.3,1,0.6,1.3,1
		c0.4,0.4,0.7,0.9,0.9,1.5c0.2,0.5,0.3,1.1,0.3,1.6c0,0.6-0.1,1.2-0.3,1.7c-0.2,0.5-0.5,1-0.9,1.4s-0.8,0.7-1.3,1
		C75.9,155.5,75.4,155.6,74.8,155.6z M71.2,151c0,0.5,0.1,1,0.3,1.5c0.2,0.5,0.4,0.9,0.7,1.3c0.3,0.4,0.7,0.7,1.1,0.9
		s0.9,0.3,1.4,0.3s1-0.1,1.5-0.3c0.4-0.2,0.8-0.5,1.1-0.9c0.3-0.4,0.5-0.8,0.7-1.3s0.3-1,0.3-1.4c0-0.5-0.1-1-0.3-1.5
		c-0.2-0.5-0.4-0.9-0.7-1.3c-0.3-0.4-0.7-0.7-1.1-0.9s-0.9-0.3-1.4-0.3s-1,0.1-1.5,0.3c-0.4,0.2-0.8,0.5-1.1,0.9
		c-0.3,0.4-0.6,0.8-0.7,1.3C71.3,150.1,71.2,150.6,71.2,151z"/>
	<path class="st1" d="M105.8,154.9v0.6h-6v-9h5.9v0.6h-5.2v3.5h4.6v0.6h-4.6v3.7L105.8,154.9L105.8,154.9z"/>
	<path class="st1" d="M116.2,147.8v7.8h-0.6v-9h0.5l6.3,7.9v-7.9h0.6v9h-0.6L116.2,147.8z"/>
	<path class="st1" d="M151.1,154.1c-0.9,1-1.9,1.5-3,1.5c-0.6,0-1.2-0.1-1.7-0.4c-0.5-0.3-1-0.6-1.3-1c-0.4-0.4-0.7-0.9-0.9-1.5
		c-0.2-0.5-0.3-1.1-0.3-1.7c0-0.6,0.1-1.2,0.3-1.7s0.5-1,0.9-1.5c0.4-0.4,0.8-0.8,1.3-1s1.1-0.4,1.7-0.4c0.4,0,0.8,0,1.2,0.1
		s0.7,0.2,1,0.4s0.5,0.4,0.7,0.6c0.2,0.2,0.4,0.5,0.5,0.8l-0.5,0.3c-0.3-0.6-0.7-1-1.2-1.3s-1.1-0.4-1.7-0.4c-0.5,0-1,0.1-1.4,0.3
		s-0.8,0.5-1.1,0.9s-0.5,0.8-0.7,1.3s-0.2,1-0.2,1.5s0.1,1,0.3,1.5s0.4,0.9,0.8,1.3c0.3,0.4,0.7,0.7,1.1,0.9
		c0.4,0.2,0.9,0.3,1.4,0.3s1.1-0.1,1.6-0.4c0.5-0.3,1-0.7,1.4-1.2v-1.7h-2v-0.5h2.6v4.4h-0.6v-1.4H151.1z"/>
	<path class="st1" d="M165.1,155c0.6,0,1.1-0.1,1.5-0.3s0.7-0.5,0.9-0.9s0.4-0.8,0.5-1.3s0.1-0.9,0.1-1.4v-4.5h0.6v4.5
		c0,0.6-0.1,1.2-0.2,1.7c-0.1,0.5-0.3,1-0.6,1.4s-0.7,0.7-1.1,1c-0.5,0.2-1.1,0.4-1.7,0.4c-0.7,0-1.3-0.1-1.8-0.4
		c-0.5-0.3-0.9-0.6-1.2-1s-0.5-0.9-0.6-1.4s-0.2-1.1-0.2-1.7v-4.5h0.6v4.5c0,0.5,0,1,0.1,1.5s0.3,0.9,0.5,1.3c0.2,0.4,0.6,0.7,1,0.9
		C164,154.9,164.5,155,165.1,155z"/>
	<path class="st1" d="M181.4,146.6h0.6l3.8,9h-0.7l-1.3-3h-4.3l-1.3,3h-0.7L181.4,146.6z M183.7,152l-2-4.7l-2,4.7H183.7z"/>
	<path class="st1" d="M195.8,147.8v7.8h-0.6v-9h0.5l6.3,7.9v-7.9h0.6v9H202L195.8,147.8z"/>
	<path class="st1" d="M215.7,146.6h0.6l3.8,9h-0.7l-1.3-3h-4.3l-1.3,3h-0.7L215.7,146.6z M217.9,152l-2-4.7l-2,4.7H217.9z"/>
	<path class="st1" d="M228.5,154.6c0.2,0.1,0.5,0.3,0.8,0.3c0.3,0.1,0.6,0.1,1,0.1c0.5,0,0.9-0.1,1.2-0.3s0.5-0.4,0.7-0.8
		c0.2-0.3,0.3-0.8,0.3-1.2c0-0.5,0.1-1.1,0.1-1.7v-4.6h0.6v4.6c0,0.7,0,1.3-0.1,1.9c-0.1,0.6-0.2,1-0.4,1.4s-0.5,0.7-0.9,0.9
		s-0.9,0.3-1.5,0.3c-0.8,0-1.4-0.2-1.9-0.6L228.5,154.6z"/>
	<path class="st1" d="M246.9,155c0.6,0,1.1-0.1,1.5-0.3s0.7-0.5,0.9-0.9c0.2-0.4,0.4-0.8,0.5-1.3s0.1-0.9,0.1-1.4v-4.5h0.6v4.5
		c0,0.6-0.1,1.2-0.2,1.7s-0.3,1-0.6,1.4c-0.3,0.4-0.7,0.7-1.1,1c-0.5,0.2-1.1,0.4-1.7,0.4c-0.7,0-1.3-0.1-1.8-0.4
		c-0.5-0.3-0.9-0.6-1.2-1s-0.5-0.9-0.6-1.4s-0.2-1.1-0.2-1.7v-4.5h0.6v4.5c0,0.5,0,1,0.1,1.5s0.3,0.9,0.5,1.3c0.2,0.4,0.6,0.7,1,0.9
		C245.8,154.9,246.3,155,246.9,155z"/>
	<path class="st1" d="M263.3,146.6h0.6l3.8,9H267l-1.3-3h-4.3l-1.3,3h-0.7L263.3,146.6z M265.5,152l-2-4.7l-2,4.7H265.5z"/>
	<path class="st1" d="M282.3,147.1H279v8.4h-0.6v-8.4h-3.3v-0.6h7.2L282.3,147.1L282.3,147.1z"/>
	<path class="st1" d="M294.8,155.6c-0.6,0-1.2-0.1-1.7-0.4c-0.5-0.3-1-0.6-1.3-1c-0.4-0.4-0.7-0.9-0.9-1.5c-0.2-0.5-0.3-1.1-0.3-1.7
		c0-0.6,0.1-1.2,0.3-1.7c0.2-0.5,0.5-1,0.9-1.5c0.4-0.4,0.8-0.8,1.3-1s1.1-0.4,1.7-0.4s1.2,0.1,1.7,0.4c0.5,0.3,1,0.6,1.3,1
		c0.4,0.4,0.7,0.9,0.9,1.5c0.2,0.5,0.3,1.1,0.3,1.6c0,0.6-0.1,1.2-0.3,1.7c-0.2,0.5-0.5,1-0.9,1.4s-0.8,0.7-1.3,1
		C296,155.5,295.4,155.6,294.8,155.6z M291.3,151c0,0.5,0.1,1,0.3,1.5c0.2,0.5,0.4,0.9,0.7,1.3c0.3,0.4,0.7,0.7,1.1,0.9
		s0.9,0.3,1.4,0.3s1-0.1,1.5-0.3c0.4-0.2,0.8-0.5,1.1-0.9c0.3-0.4,0.5-0.8,0.7-1.3s0.3-1,0.3-1.4c0-0.5-0.1-1-0.3-1.5
		c-0.2-0.5-0.4-0.9-0.7-1.3c-0.3-0.4-0.7-0.7-1.1-0.9s-0.9-0.3-1.4-0.3s-1,0.1-1.5,0.3c-0.4,0.2-0.8,0.5-1.1,0.9
		c-0.3,0.4-0.6,0.8-0.7,1.3C291.4,150.1,291.3,150.6,291.3,151z"/>
</g>
</svg>
