<?xml version="1.0" encoding="utf-8"?>
<!-- Generator: Adobe Illustrator 21.0.0, SVG Export Plug-In . SVG Version: 6.00 Build 0)  -->
<svg version="1.1" id="Layer_1" xmlns="http://www.w3.org/2000/svg" xmlns:xlink="http://www.w3.org/1999/xlink" x="0px" y="0px"
	 viewBox="0 0 40 45.8" style="enable-background:new 0 0 40 45.8;" xml:space="preserve">
<style type="text/css">
	.st0{fill:#96C5CF;}
	.st1{enable-background:new    ;}
	.st2{fill:#FFFFFF;}
	.st3{fill:#2A2928;}
	.st4{fill:none;stroke:#6D6E71;stroke-width:1.1812;stroke-linecap:round;stroke-miterlimit:10;}
	.st5{fill:#6D6E71;}
	.st6{fill:none;stroke:#6D6E71;stroke-width:0.1482;stroke-miterlimit:10;}
	.st7{fill:none;stroke:#6D6E71;stroke-width:0.1482;stroke-miterlimit:10;stroke-dasharray:1.7552,1.7552,1.7552,1.7552;}
</style>
<g>
	<g>
		<path class="st0" d="M7.7,18.8l7-6.6c2.6-2.5,6.7-2.5,9.3,0l6.8,6.6c1.3,1.3,2,3,2,4.8v12.8c0,3.7-3,6.7-6.7,6.7H12.3
			c-3.7,0-6.7-3-6.7-6.7V23.7C5.6,21.8,6.4,20.1,7.7,18.8z"/>
	</g>
	<g>
		<g class="st1">
			<path class="st2" d="M16.1,29c0,0.4-0.1,0.8-0.2,1.2c-0.1,0.4-0.3,0.7-0.5,0.9c-0.2,0.3-0.5,0.5-0.8,0.6c-0.3,0.1-0.6,0.2-1,0.2
				c-0.4,0-0.7-0.1-1-0.2c-0.3-0.1-0.6-0.4-0.8-0.6c-0.2-0.3-0.4-0.6-0.5-0.9C11.1,29.8,11,29.4,11,29s0.1-0.8,0.2-1.2
				s0.3-0.7,0.5-0.9c0.2-0.3,0.5-0.5,0.8-0.6s0.6-0.2,1-0.2c0.4,0,0.7,0.1,1,0.2c0.3,0.2,0.6,0.4,0.8,0.6c0.2,0.3,0.4,0.6,0.5,0.9
				C16,28.1,16.1,28.5,16.1,29z M14.8,29c0-0.3,0-0.5-0.1-0.7c-0.1-0.2-0.1-0.4-0.2-0.6c-0.1-0.2-0.2-0.3-0.4-0.4
				c-0.1-0.1-0.3-0.1-0.5-0.1c-0.2,0-0.3,0-0.5,0.1c-0.1,0.1-0.3,0.2-0.4,0.4c-0.1,0.2-0.2,0.3-0.3,0.6c-0.1,0.2-0.1,0.5-0.1,0.7
				s0,0.5,0.1,0.7c0.1,0.2,0.1,0.4,0.3,0.6c0.1,0.2,0.2,0.3,0.4,0.4c0.1,0.1,0.3,0.1,0.5,0.1c0.2,0,0.3,0,0.5-0.1
				c0.1-0.1,0.3-0.2,0.4-0.4c0.1-0.2,0.2-0.3,0.2-0.6C14.8,29.5,14.8,29.2,14.8,29z"/>
			<path class="st2" d="M19.6,33.1v-1.5h-2.9v-1.2l3.3-4.2H21v4.2h0.9v1.2H21v1.5H19.6z M18.1,30.5h1.7v-2.2L18.1,30.5z"/>
		</g>
	</g>
	<path class="st0" d="M20.5,4.1L20.5,4.1c-0.8,0.8-2,0.8-2.8,0l0,0c-0.8-0.8-0.8-2,0-2.8l0,0c0.8-0.8,2-0.8,2.8,0l0,0
		C21.2,2.1,21.2,3.3,20.5,4.1z"/>
	<g>
		<g>
			<g>
				<path class="st3" d="M38.1,31.2c-1.7,0-3.1-1.1-3.1-2.4c0-0.1-0.1-0.3-0.3-0.3c-0.1,0-0.3,0.1-0.3,0.3c0,1.3-1.4,2.4-3.1,2.4
					c-1.7,0-3.1-1.1-3.1-2.4c0-0.1-0.1-0.3-0.3-0.3c-0.1,0-0.3,0.1-0.3,0.3c0,1.3-1.4,2.4-3.1,2.4c-0.1,0-0.3,0.1-0.3,0.3
					c0,0.1,0.1,0.3,0.3,0.3c1.3,0,2.5-0.6,3.1-1.4V35H27c-0.1,0-0.3,0.1-0.3,0.3c0,0.1,0.1,0.3,0.3,0.3h1.7c0.1,0,0.3-0.1,0.3-0.3
					c0-0.1-0.1-0.3-0.3-0.3h-0.6v-4.6c0.6,0.8,1.8,1.4,3.1,1.4s2.5-0.6,3.1-1.4V35h-0.6c-0.1,0-0.3,0.1-0.3,0.3
					c0,0.1,0.1,0.3,0.3,0.3h1.7c0.1,0,0.3-0.1,0.3-0.3c0-0.1-0.1-0.3-0.3-0.3H35v-4.6c0.6,0.8,1.8,1.4,3.1,1.4
					c0.1,0,0.3-0.1,0.3-0.3C38.3,31.4,38.2,31.2,38.1,31.2z"/>
				<path class="st3" d="M29.5,28.3h3.7c0.1,0,0.3-0.1,0.3-0.3v-4.8c0-0.1-0.1-0.3-0.3-0.3h-3.7c-0.1,0-0.3,0.1-0.3,0.3V28
					C29.2,28.2,29.4,28.3,29.5,28.3z M29.8,23.5H33v4.3h-3.2V23.5z"/>
			</g>
		</g>
	</g>
	<g>
		<g>
			<path class="st4" d="M6.7,17.8l7.5-7.1c2.8-2.7,7.2-2.6,10,0.1l7.3,7.1"/>
		</g>
		<line class="st4" x1="19" y1="8.7" x2="19" y2="6.2"/>
	</g>
</g>
<g>
	<g>
		<ellipse transform="matrix(0.8421 -0.5393 0.5393 0.8421 -11.0732 5.3421)" class="st5" cx="3.6" cy="21.6" rx="0.2" ry="0.2"/>
		<ellipse transform="matrix(0.8421 -0.5393 0.5393 0.8421 -5.9576 10.4065)" class="st5" cx="14.8" cy="15.4" rx="0.1" ry="0.1"/>
		<g>
			<g>
				<path class="st6" d="M3.6,21.6c0,0,1,0.1,2.4-0.1"/>
				<path class="st7" d="M7.6,21.1c1.7-0.5,3.6-1.4,5.2-3.1"/>
				<path class="st6" d="M13.4,17.4c0.5-0.6,0.9-1.2,1.3-2"/>
			</g>
		</g>
	</g>
</g>
</svg>
