<?xml version="1.0" encoding="utf-8"?>
<!-- Generator: Adobe Illustrator 21.0.0, SVG Export Plug-In . SVG Version: 6.00 Build 0)  -->
<svg version="1.1" id="Layer_1" xmlns="http://www.w3.org/2000/svg" xmlns:xlink="http://www.w3.org/1999/xlink" x="0px" y="0px"
	 viewBox="0 0 40 45.8" style="enable-background:new 0 0 40 45.8;" xml:space="preserve">
<style type="text/css">
	.st0{fill:#58C5D1;}
	.st1{enable-background:new    ;}
	.st2{fill:#FFFFFF;}
	.st3{fill:none;stroke:#6D6E71;stroke-width:1.1812;stroke-linecap:round;stroke-miterlimit:10;}
	.st4{fill:#6D6E71;}
	.st5{fill:none;stroke:#6D6E71;stroke-width:0.1741;stroke-miterlimit:10;}
	.st6{fill:none;stroke:#6D6E71;stroke-width:0.1741;stroke-miterlimit:10;stroke-dasharray:2.1898,2.1898,2.1898,2.1898;}
	.st7{fill:#2E2D2C;}
</style>
<g>
	<g>
		<path class="st0" d="M9.6,19.7l6.9-6.5c2.6-2.4,6.6-2.4,9.2,0l6.7,6.5c1.3,1.2,2,3,2,4.8v12.7c0,3.7-3,6.6-6.6,6.6H14.2
			c-3.7,0-6.6-3-6.6-6.6V24.5C7.6,22.7,8.3,20.9,9.6,19.7z"/>
	</g>
	<g>
		<g class="st1">
			<path class="st2" d="M19.2,29.2c0,0.4-0.1,0.8-0.2,1.2c-0.1,0.4-0.3,0.7-0.5,0.9s-0.5,0.5-0.8,0.6s-0.6,0.2-1,0.2
				c-0.4,0-0.7-0.1-1-0.2s-0.6-0.3-0.8-0.6s-0.4-0.6-0.5-0.9c-0.1-0.4-0.2-0.8-0.2-1.2s0.1-0.8,0.2-1.2c0.1-0.4,0.3-0.7,0.5-0.9
				s0.5-0.5,0.8-0.6c0.3-0.1,0.6-0.2,1-0.2c0.4,0,0.7,0.1,1,0.2c0.3,0.1,0.6,0.4,0.8,0.6s0.4,0.6,0.5,0.9
				C19.2,28.3,19.2,28.7,19.2,29.2z M17.9,29.2c0-0.3,0-0.5-0.1-0.7c-0.1-0.2-0.1-0.4-0.2-0.6c-0.1-0.2-0.2-0.3-0.4-0.4
				c-0.1-0.1-0.3-0.1-0.5-0.1c-0.2,0-0.3,0-0.5,0.1c-0.1,0.1-0.3,0.2-0.4,0.4c-0.1,0.2-0.2,0.3-0.2,0.6s-0.1,0.5-0.1,0.7
				s0,0.5,0.1,0.7c0.1,0.2,0.1,0.4,0.2,0.6c0.1,0.2,0.2,0.3,0.4,0.4s0.3,0.1,0.5,0.1c0.2,0,0.3,0,0.5-0.1s0.3-0.2,0.4-0.4
				c0.1-0.2,0.2-0.3,0.2-0.6C17.9,29.6,17.9,29.4,17.9,29.2z"/>
			<path class="st2" d="M20.1,32c0-0.3,0-0.6,0.1-0.8c0-0.2,0.1-0.5,0.2-0.7c0.1-0.2,0.3-0.4,0.5-0.6s0.4-0.3,0.8-0.5
				c0.3-0.1,0.5-0.3,0.7-0.4c0.2-0.1,0.4-0.2,0.5-0.3c0.1-0.1,0.2-0.2,0.3-0.3c0.1-0.1,0.1-0.2,0.1-0.3c0-0.2-0.1-0.4-0.2-0.5
				c-0.2-0.1-0.4-0.2-0.7-0.2c-0.2,0-0.3,0-0.4,0.1c-0.1,0-0.3,0.1-0.4,0.2s-0.2,0.2-0.3,0.2c-0.1,0.1-0.2,0.2-0.3,0.3l-0.8-1
				c0.1-0.1,0.2-0.2,0.4-0.3c0.2-0.1,0.3-0.2,0.5-0.3c0.2-0.1,0.4-0.2,0.7-0.2c0.3-0.1,0.5-0.1,0.8-0.1c0.3,0,0.6,0,0.9,0.1
				c0.3,0.1,0.5,0.2,0.7,0.3s0.3,0.3,0.4,0.5c0.1,0.2,0.1,0.4,0.1,0.7c0,0.2,0,0.4-0.1,0.6s-0.2,0.3-0.3,0.5
				c-0.1,0.1-0.3,0.3-0.4,0.4c-0.2,0.1-0.3,0.2-0.4,0.3c-0.1,0.1-0.2,0.1-0.4,0.2s-0.3,0.2-0.4,0.3c-0.1,0.1-0.3,0.2-0.4,0.3
				c-0.1,0.1-0.2,0.2-0.3,0.3h2.9V32H20.1z"/>
		</g>
	</g>
	<path class="st0" d="M22.4,5.3L22.4,5.3c-0.8,0.8-2,0.8-2.7,0l0,0c-0.8-0.8-0.8-2,0-2.7l0,0c0.8-0.8,2-0.8,2.7,0l0,0
		C23.1,3.3,23.1,4.5,22.4,5.3z"/>
	<g>
		<g>
			<path class="st3" d="M8.9,18.8l7.4-7c2.8-2.6,7.1-2.6,9.8,0.1l7.2,7"/>
		</g>
		<line class="st3" x1="21.1" y1="9.8" x2="21.1" y2="7.4"/>
	</g>
</g>
<g>
	<g>
		<circle class="st4" cx="19.2" cy="18.2" r="0.2"/>
		<circle class="st4" cx="4.3" cy="17.3" r="0.2"/>
		<g>
			<g>
				<path class="st5" d="M19.2,18.2c0,0-0.8-0.6-2-1.2"/>
				<path class="st6" d="M15.1,16.2c-2-0.6-4.7-1-7.6-0.3"/>
				<path class="st5" d="M6.5,16.3c-0.7,0.3-1.4,0.6-2.2,1"/>
			</g>
		</g>
	</g>
</g>
<g>
	<circle class="st7" cx="34.6" cy="25.8" r="0.6"/>
	<path class="st7" d="M36.4,29c0,0-0.5-1.2-0.6-1.8c-0.1-0.4-0.3-0.6-0.6-0.6h-0.9c-0.3,0-0.4,0.1-0.6,0.3c0,0-0.4,0.4-0.7,0.6
		c-0.1,0-0.1,0.1-0.1,0.2s0,0.1,0.1,0.2l0.6,0.7c0.1,0.1,0.2,0.1,0.3,0.1l-0.2,1v0.1l0.1,0.1c0.1,0,0.1,0,0.2,0v2
		c0,0.2,0.1,0.3,0.3,0.3s0.3-0.1,0.3-0.3v-2h0.1v2c0,0.2,0.1,0.3,0.3,0.3s0.3-0.1,0.3-0.3v-2c0.1,0,0.1,0,0.2,0c0,0,0.1,0,0.1-0.1
		v-0.1c-0.4-2.2-0.4-1.9-0.4-2c0.2,0.6,0.5,1.5,0.5,1.5c0.1,0.1,0.2,0.2,0.4,0.2C36.4,29.3,36.4,29.1,36.4,29z M33.8,28.2l-0.4-0.4
		l0.5-0.5L33.8,28.2z"/>
	<path class="st7" d="M32.4,26h-0.2v-0.2c0,0,0-0.1-0.1-0.1H32v-0.2c0-0.1-0.1-0.1-0.1-0.1l-0.1,0.1v0.2h-0.1c0,0-0.1,0-0.1,0.1v0.3
		c0.1,0,0.2,0,0.3,0.1c0.2,0.1,0.2,0.3,0.2,0.5l0,0c0,0,0.1,0,0.1-0.1v-0.2h0.2c0,0,0.1,0,0.1-0.1L32.4,26
		C32.5,26.1,32.5,26,32.4,26z"/>
	<circle class="st7" cx="30.8" cy="25.8" r="0.6"/>
	<path class="st7" d="M31.8,26.4c-0.1-0.1-0.3-0.1-0.4,0.1l-0.6,0.8L30.3,27l0.3,0.1l0.3-0.3c-0.1,0-0.1,0-0.2-0.1L30,26.6
		c-0.2,0-0.4,0.2-0.4,0.4l-0.1,2.1l0.2,1.1l-0.4,1.5c0,0.2,0.1,0.4,0.2,0.4c0.2,0,0.4-0.1,0.4-0.2l0.4-1.6v-0.1l-0.2-1h0.1l0.4,1.1
		l-0.3,1.6c0,0.2,0.1,0.4,0.3,0.4c0.2,0,0.4-0.1,0.4-0.3l0.3-1.7c0-0.1,0-0.1,0-0.2L31,29.2l0.1-1c-0.2,0.1-0.4,0-0.5-0.1L30,27.4
		l0.7,0.5c0.1,0.1,0.3,0.1,0.4-0.1l0.8-1C31.9,26.7,31.9,26.5,31.8,26.4z"/>
</g>
</svg>
