<?xml version="1.0" encoding="utf-8"?>
<!-- Generator: Adobe Illustrator 21.0.0, SVG Export Plug-In . SVG Version: 6.00 Build 0)  -->
<svg version="1.1" id="Layer_1" xmlns="http://www.w3.org/2000/svg" xmlns:xlink="http://www.w3.org/1999/xlink" x="0px" y="0px"
	 viewBox="0 0 302.5 161" style="enable-background:new 0 0 302.5 161;" xml:space="preserve">
<style type="text/css">
	.st0{fill:#313130;}
	.st1{fill:#0096A9;}
</style>
<g>
	<path id="XMLID_10_" class="st0" d="M178.6,43.3h-4.9h-67.6l-3.1,9.3L90.2,91c-1.1,3.3-5.5,3.7-7.2,0.7L69.9,69.1l53.8-58.6H89.8
		c0,0,6.1,0.7,8.4,1.5c1.3,0.5,0.3,2.1-0.7,3.4L96,16.9l0,0L45,72.2l16.9-52.5c1.5-4.5-1.9-9.2-6.7-9.2H15.4l-5.3,16h30.4
		c1.2,0,2.1,1.2,1.7,2.3c0,0-23.2,69.9-24.5,74.6c-1.4,4.7-8.1,6.3-11.4,6.5h15.5l0,0h8.8c1.1,0,2.2-0.5,2.9-1.3l24.1-26.1
		c0.2-0.2,0.6-0.2,0.7,0.1L74,107.4c1,1.5,2.7,2.5,4.5,2.5l20,0c1.1,0,2-0.7,2.3-1.7l4.7-13.9l10.9-32.9c0.2-0.7,1-1.2,1.7-1.2h13.2
		c1.2,0,1.8,1.1,1.4,2.3l-10.3,31.8l-5.1,15.6h16.2l5.1-15.6l10.8-33c0.2-0.7,1.1-1.1,1.8-1.1h12.9c1.2,0,2.1,1.2,1.7,2.3L146.9,121
		l-0.4,1c0,0,0,0.2-0.4,0.8c-0.9,1.2-3.2,3.4-7.7,3.6h6.9l0,0h15.5l10.6-32.2l13.9-41.7C186.8,48,183.4,43.3,178.6,43.3"/>
	<path id="XMLID_9_" class="st1" d="M221.4,41.1l5.4-16.5l7.3-22.1H209c0,0,8.6,0.1,7.5,4.2l-5.9,17.9l-5.4,16.5l-5.3,16.2
		l-6.6,20.1l-5.3,16.2l-10.7,32.7h16.2l10.7-32.7l5.3-16.2l6.6-20.1L221.4,41.1z"/>
	<path id="XMLID_8_" class="st0" d="M267.5,110.2c-1.5-0.4-2.5-2-2-3.6l10.8-32.8c1.6-4.9-2.1-10-7.3-10h-1.2h-21.1l12.5-37.2h-25.3
		c0,0,8.6,0.1,7.5,4.2c-0.1,0.4-0.2,0.7-0.2,0.9l-8.7,25.7l-5.4,16.5L222,90.1l-6.6,20.1l-5.4,16.2h16.2l5.3-16.2l9.5-29.6h12.4
		c2,0,3.4,2,2.8,3.9l-8.2,25.7l-2.3,7c-1.5,4.5,1.9,9.2,6.7,9.2h39.5l5.3-16.2H267.5z"/>
</g>
<g>
	<path class="st0" d="M14.4,141.1v8.8h-0.6v-4.2H8.2v4.2H7.6v-8.8h0.6v4h5.6v-4H14.4z"/>
	<path class="st0" d="M30.4,149.3v0.6h-5.9v-8.8h5.8v0.6h-5.1v3.5h4.5v0.5h-4.5v3.7H30.4z"/>
	<path class="st0" d="M39.1,145.4c0-0.5,0.1-1.1,0.3-1.6c0.2-0.5,0.5-1,0.8-1.4c0.4-0.4,0.8-0.8,1.3-1c0.5-0.3,1.1-0.4,1.8-0.4
		c0.8,0,1.5,0.2,2,0.5c0.6,0.4,1,0.8,1.2,1.4l-0.5,0.3c-0.2-0.3-0.3-0.6-0.6-0.8c-0.2-0.2-0.4-0.4-0.7-0.5c-0.2-0.1-0.5-0.2-0.8-0.3
		c-0.3-0.1-0.5-0.1-0.8-0.1c-0.6,0-1.1,0.1-1.5,0.3s-0.8,0.5-1.1,0.9c-0.3,0.4-0.5,0.8-0.7,1.2c-0.2,0.5-0.2,0.9-0.2,1.4
		c0,0.5,0.1,1,0.3,1.5c0.2,0.5,0.4,0.9,0.7,1.2c0.3,0.4,0.7,0.6,1.1,0.9c0.4,0.2,0.9,0.3,1.4,0.3c0.3,0,0.5,0,0.8-0.1
		c0.3-0.1,0.5-0.2,0.8-0.3c0.3-0.1,0.5-0.3,0.7-0.5c0.2-0.2,0.4-0.5,0.6-0.8l0.5,0.3c-0.1,0.3-0.4,0.6-0.6,0.9
		c-0.3,0.3-0.5,0.5-0.9,0.6s-0.6,0.3-1,0.4c-0.4,0.1-0.7,0.1-1,0.1c-0.6,0-1.2-0.1-1.7-0.4c-0.5-0.3-0.9-0.6-1.3-1
		c-0.4-0.4-0.6-0.9-0.8-1.5S39.1,146,39.1,145.4z"/>
	<path class="st0" d="M62.9,141.1v8.8h-0.6v-4.2h-5.6v4.2h-0.6v-8.8h0.6v4h5.6v-4H62.9z"/>
	<path class="st0" d="M76.5,150c-0.6,0-1.2-0.1-1.7-0.4c-0.5-0.3-0.9-0.6-1.3-1c-0.4-0.4-0.6-0.9-0.8-1.4c-0.2-0.5-0.3-1.1-0.3-1.6
		c0-0.6,0.1-1.1,0.3-1.7c0.2-0.5,0.5-1,0.9-1.4c0.4-0.4,0.8-0.7,1.3-1s1-0.4,1.6-0.4c0.6,0,1.2,0.1,1.7,0.4c0.5,0.3,0.9,0.6,1.3,1
		c0.4,0.4,0.6,0.9,0.8,1.4c0.2,0.5,0.3,1.1,0.3,1.6c0,0.6-0.1,1.2-0.3,1.7c-0.2,0.5-0.5,1-0.9,1.4c-0.4,0.4-0.8,0.7-1.3,1
		C77.7,149.8,77.1,150,76.5,150z M73,145.5c0,0.5,0.1,1,0.3,1.5c0.2,0.5,0.4,0.9,0.7,1.2c0.3,0.4,0.7,0.6,1.1,0.9
		c0.4,0.2,0.9,0.3,1.4,0.3c0.5,0,1-0.1,1.4-0.3c0.4-0.2,0.8-0.5,1.1-0.9s0.5-0.8,0.7-1.2c0.2-0.5,0.2-0.9,0.2-1.4
		c0-0.5-0.1-1-0.3-1.5c-0.2-0.5-0.4-0.9-0.7-1.2c-0.3-0.4-0.7-0.6-1.1-0.9c-0.4-0.2-0.9-0.3-1.4-0.3c-0.5,0-1,0.1-1.4,0.3
		c-0.4,0.2-0.8,0.5-1.1,0.9c-0.3,0.4-0.5,0.8-0.7,1.2C73.1,144.5,73,145,73,145.5z"/>
	<path class="st0" d="M107,149.3v0.6h-5.9v-8.8h5.8v0.6h-5.1v3.5h4.5v0.5h-4.5v3.7H107z"/>
	<path class="st0" d="M117.2,142.3v7.6h-0.6v-8.8h0.5l6.2,7.7v-7.7h0.6v8.8h-0.6L117.2,142.3z"/>
	<path class="st0" d="M151.4,148.5c-0.9,1-1.8,1.4-3,1.4c-0.6,0-1.1-0.1-1.7-0.4c-0.5-0.3-0.9-0.6-1.3-1c-0.4-0.4-0.6-0.9-0.9-1.4
		c-0.2-0.5-0.3-1.1-0.3-1.6c0-0.6,0.1-1.1,0.3-1.7c0.2-0.5,0.5-1,0.8-1.4c0.4-0.4,0.8-0.7,1.3-1s1-0.4,1.6-0.4c0.4,0,0.8,0,1.2,0.1
		s0.7,0.2,0.9,0.4c0.3,0.2,0.5,0.4,0.7,0.6c0.2,0.2,0.4,0.5,0.5,0.8l-0.5,0.3c-0.3-0.6-0.7-1-1.2-1.3c-0.5-0.3-1-0.4-1.7-0.4
		c-0.5,0-1,0.1-1.4,0.3c-0.4,0.2-0.8,0.5-1.1,0.9c-0.3,0.4-0.5,0.8-0.7,1.2c-0.2,0.5-0.2,0.9-0.2,1.4c0,0.5,0.1,1,0.3,1.5
		c0.2,0.5,0.4,0.9,0.8,1.2c0.3,0.4,0.7,0.6,1.1,0.8c0.4,0.2,0.9,0.3,1.4,0.3c0.5,0,1-0.1,1.5-0.4s0.9-0.6,1.4-1.2v-1.7h-2v-0.5h2.5
		v4.3h-0.5V148.5z"/>
	<path class="st0" d="M165.2,149.4c0.6,0,1.1-0.1,1.5-0.3c0.4-0.2,0.7-0.5,0.9-0.9c0.2-0.4,0.4-0.8,0.5-1.2c0.1-0.5,0.1-0.9,0.1-1.4
		v-4.4h0.6v4.4c0,0.6-0.1,1.1-0.2,1.7c-0.1,0.5-0.3,1-0.6,1.4c-0.3,0.4-0.7,0.7-1.1,1c-0.5,0.2-1,0.4-1.7,0.4
		c-0.7,0-1.3-0.1-1.8-0.4c-0.5-0.3-0.8-0.6-1.1-1c-0.3-0.4-0.5-0.9-0.6-1.4c-0.1-0.5-0.2-1.1-0.2-1.6v-4.4h0.6v4.4
		c0,0.5,0,1,0.1,1.4c0.1,0.5,0.3,0.9,0.5,1.2s0.5,0.6,0.9,0.9C164.1,149.3,164.6,149.4,165.2,149.4z"/>
	<path class="st0" d="M181.2,141.1h0.5l3.7,8.8h-0.7l-1.2-2.9h-4.2l-1.2,2.9h-0.7L181.2,141.1z M183.4,146.5l-1.9-4.6l-2,4.6H183.4z
		"/>
	<path class="st0" d="M195.2,142.3v7.6h-0.6v-8.8h0.5l6.2,7.7v-7.7h0.6v8.8h-0.6L195.2,142.3z"/>
	<path class="st0" d="M214.8,141.1h0.5l3.7,8.8h-0.7l-1.2-2.9h-4.2l-1.2,2.9H211L214.8,141.1z M217,146.5l-1.9-4.6l-2,4.6H217z"/>
	<path class="st0" d="M227.4,149c0.2,0.1,0.5,0.3,0.7,0.3c0.3,0.1,0.6,0.1,1,0.1c0.5,0,0.9-0.1,1.1-0.3c0.3-0.2,0.5-0.4,0.6-0.8
		c0.1-0.3,0.2-0.7,0.3-1.2c0-0.5,0.1-1,0.1-1.6v-4.5h0.6v4.5c0,0.7,0,1.3-0.1,1.8c-0.1,0.5-0.2,1-0.4,1.4c-0.2,0.4-0.5,0.7-0.8,0.9
		c-0.4,0.2-0.9,0.3-1.5,0.3c-0.7,0-1.4-0.2-1.9-0.5L227.4,149z"/>
	<path class="st0" d="M245.4,149.4c0.6,0,1.1-0.1,1.5-0.3c0.4-0.2,0.7-0.5,0.9-0.9c0.2-0.4,0.4-0.8,0.5-1.2c0.1-0.5,0.1-0.9,0.1-1.4
		v-4.4h0.6v4.4c0,0.6-0.1,1.1-0.2,1.7c-0.1,0.5-0.3,1-0.6,1.4c-0.3,0.4-0.7,0.7-1.1,1c-0.5,0.2-1,0.4-1.7,0.4
		c-0.7,0-1.3-0.1-1.8-0.4c-0.5-0.3-0.8-0.6-1.1-1c-0.3-0.4-0.5-0.9-0.6-1.4c-0.1-0.5-0.2-1.1-0.2-1.6v-4.4h0.6v4.4
		c0,0.5,0,1,0.1,1.4c0.1,0.5,0.3,0.9,0.5,1.2c0.2,0.4,0.5,0.6,0.9,0.9C244.4,149.3,244.9,149.4,245.4,149.4z"/>
	<path class="st0" d="M261.5,141.1h0.5l3.7,8.8h-0.7l-1.2-2.9h-4.2l-1.2,2.9h-0.7L261.5,141.1z M263.7,146.5l-1.9-4.6l-2,4.6H263.7z
		"/>
	<path class="st0" d="M280.2,141.7h-3.2v8.2h-0.6v-8.2h-3.2v-0.6h7.1V141.7z"/>
	<path class="st0" d="M292.4,150c-0.6,0-1.2-0.1-1.7-0.4c-0.5-0.3-0.9-0.6-1.3-1c-0.4-0.4-0.6-0.9-0.8-1.4c-0.2-0.5-0.3-1.1-0.3-1.6
		c0-0.6,0.1-1.1,0.3-1.7c0.2-0.5,0.5-1,0.9-1.4c0.4-0.4,0.8-0.7,1.3-1c0.5-0.2,1-0.4,1.6-0.4c0.6,0,1.2,0.1,1.7,0.4
		c0.5,0.3,0.9,0.6,1.3,1c0.4,0.4,0.6,0.9,0.8,1.4c0.2,0.5,0.3,1.1,0.3,1.6c0,0.6-0.1,1.2-0.3,1.7c-0.2,0.5-0.5,1-0.9,1.4
		c-0.4,0.4-0.8,0.7-1.3,1C293.6,149.8,293,150,292.4,150z M289,145.5c0,0.5,0.1,1,0.3,1.5c0.2,0.5,0.4,0.9,0.7,1.2
		c0.3,0.4,0.7,0.6,1.1,0.9c0.4,0.2,0.9,0.3,1.4,0.3c0.5,0,1-0.1,1.4-0.3c0.4-0.2,0.8-0.5,1.1-0.9s0.5-0.8,0.7-1.2
		c0.2-0.5,0.2-0.9,0.2-1.4c0-0.5-0.1-1-0.3-1.5c-0.2-0.5-0.4-0.9-0.7-1.2c-0.3-0.4-0.7-0.6-1.1-0.9c-0.4-0.2-0.9-0.3-1.4-0.3
		c-0.5,0-1,0.1-1.4,0.3c-0.4,0.2-0.8,0.5-1.1,0.9c-0.3,0.4-0.5,0.8-0.7,1.2C289,144.5,289,145,289,145.5z"/>
</g>
</svg>
