<?xml version="1.0" encoding="utf-8"?>
<!-- Generator: Adobe Illustrator 21.0.0, SVG Export Plug-In . SVG Version: 6.00 Build 0)  -->
<svg version="1.1" id="Layer_1" xmlns="http://www.w3.org/2000/svg" xmlns:xlink="http://www.w3.org/1999/xlink" x="0px" y="0px"
	 viewBox="0 0 40 40" style="enable-background:new 0 0 40 40;" xml:space="preserve">
<style type="text/css">
	.st0{fill:#F0592C;}
</style>
<g>
	<g>
		<path class="st0" d="M37.7,29.7c-1.3-2.5-6.2-5.3-6.2-5.3c-1.1-0.6-2.4-0.7-3,0.4c0,0-1.6,1.9-2,2.2c-1.8,1.2-3.5,1.2-5.2-0.5
			l-4-4l-4-4c-1.7-1.7-1.8-3.4-0.5-5.2c0.3-0.4,2.2-2,2.2-2c1.1-0.6,1-2,0.4-3c0,0-2.8-4.9-5.3-6.2C9,1.5,7.7,1.6,6.9,2.5L5.1,4.3
			c-5.6,5.6-2.8,11.9,2.7,17.4l5.1,5.1l5.1,5.1c5.6,5.6,11.9,8.3,17.4,2.7l1.8-1.8C38.1,32,38.3,30.7,37.7,29.7z"/>
		<path class="st0" d="M28.9,38.4c-0.7,0-1.5-0.1-2.2-0.3c-2.9-0.7-5.9-2.6-9.1-5.7L7.4,22.2C0.5,15.3-0.5,8.9,4.6,3.8L6.4,2
			c1.1-1.1,2.7-1.3,4-0.6C13,2.8,15.9,7.6,16,7.8c0.5,0.9,0.7,1.8,0.5,2.6c-0.2,0.6-0.5,1.1-1.1,1.4c-0.8,0.7-1.8,1.6-2,1.8
			c-1.1,1.6-1,2.9,0.4,4.4l8,8c1.4,1.4,2.7,1.5,4.4,0.4c0.2-0.2,1.1-1.1,1.8-2c0.3-0.5,0.8-0.9,1.4-1.1c0.8-0.2,1.7-0.1,2.6,0.4
			c0.2,0.1,5,3,6.4,5.6l0,0c0.7,1.3,0.5,2.9-0.6,4L36,35.1C33.8,37.3,31.4,38.4,28.9,38.4z M8.8,2.4c-0.5,0-1,0.2-1.4,0.6L5.6,4.7
			C1.1,9.3,2,14.8,8.4,21.2l10.2,10.2c6.4,6.4,11.9,7.3,16.5,2.7l1.8-1.8c0.6-0.6,0.8-1.6,0.4-2.4l0,0c-1-1.9-4.6-4.3-5.9-5.1
			c-0.5-0.3-1.1-0.4-1.5-0.3c-0.2,0.1-0.4,0.2-0.6,0.5l-0.1,0.1c-0.5,0.6-1.7,2-2.1,2.3c-2.2,1.5-4.2,1.3-6.1-0.6l-8-8
			c-1.9-1.9-2.1-3.9-0.6-6.1c0.3-0.4,1.7-1.6,2.3-2.1l0.1-0.1c0.2-0.1,0.4-0.3,0.5-0.6c0.1-0.4,0-1-0.3-1.5c0,0-2.8-4.7-5.1-5.9
			C9.5,2.5,9.1,2.4,8.8,2.4z"/>
	</g>
</g>
</svg>
