<?xml version="1.0" encoding="utf-8"?>
<!-- Generator: Adobe Illustrator 21.0.0, SVG Export Plug-In . SVG Version: 6.00 Build 0)  -->
<svg version="1.1" id="Layer_1" xmlns="http://www.w3.org/2000/svg" xmlns:xlink="http://www.w3.org/1999/xlink" x="0px" y="0px"
	 viewBox="0 0 40 40" style="enable-background:new 0 0 40 40;" xml:space="preserve">
<style type="text/css">
	.st0{fill:#2E2D2C;}
</style>
<g>
	<g>
		<path class="st0" d="M20,0.5C9.2,0.5,0.5,9.2,0.5,20c0,10.8,8.7,19.5,19.5,19.5c10.8,0,19.5-8.7,19.5-19.5
			C39.5,9.2,30.8,0.5,20,0.5z M28.7,15.5c0,0.2,0,0.4,0,0.6c0,5.9-4.5,12.8-12.8,12.8c-2.5,0-4.9-0.7-6.9-2c0.4,0,0.7,0.1,1.1,0.1
			c2.1,0,4-0.7,5.6-1.9c-2,0-3.6-1.3-4.2-3.1c0.3,0.1,0.6,0.1,0.8,0.1c0.4,0,0.8-0.1,1.2-0.2c-2.1-0.4-3.6-2.2-3.6-4.4
			c0,0,0,0,0-0.1c0.6,0.3,1.3,0.5,2,0.6c-1.2-0.8-2-2.2-2-3.7c0-0.8,0.2-1.6,0.6-2.3c2.2,2.7,5.5,4.5,9.3,4.7
			c-0.1-0.3-0.1-0.7-0.1-1c0-2.5,2-4.5,4.5-4.5c1.3,0,2.5,0.5,3.3,1.4c1-0.2,2-0.6,2.9-1.1c-0.3,1-1,1.9-2,2.5
			c0.9-0.1,1.8-0.3,2.6-0.7C30.3,14.1,29.6,14.9,28.7,15.5z"/>
	</g>
</g>
</svg>
