<?xml version="1.0" encoding="utf-8"?>
<!-- Generator: Adobe Illustrator 21.0.0, SVG Export Plug-In . SVG Version: 6.00 Build 0)  -->
<svg version="1.1" id="Layer_1" xmlns="http://www.w3.org/2000/svg" xmlns:xlink="http://www.w3.org/1999/xlink" x="0px" y="0px"
	 viewBox="0 0 40 40" style="enable-background:new 0 0 40 40;" xml:space="preserve">
<style type="text/css">
	.st0{fill:#2E2D2C;}
</style>
<g>
	<g>
		<polygon class="st0" points="10.4,21.7 11.9,21.7 11.9,30.2 13.4,30.2 13.4,21.7 15,21.7 15,20.3 10.4,20.3 		"/>
		<path class="st0" d="M22.9,22.7c-0.5,0-0.9,0.3-1.4,0.8v-3.2h-1.3v9.9h1.3v-0.7c0.4,0.5,0.9,0.8,1.4,0.8c0.5,0,0.9-0.3,1.1-0.8
			c0.1-0.3,0.1-0.8,0.1-1.5v-2.9c0-0.7,0-1.2-0.1-1.5C23.8,23,23.4,22.7,22.9,22.7z M22.8,28.1c0,0.7-0.2,1-0.6,1
			c-0.2,0-0.4-0.1-0.7-0.3v-4.5c0.2-0.2,0.4-0.3,0.7-0.3c0.4,0,0.6,0.3,0.6,1V28.1z"/>
		<path class="st0" d="M17.7,28.4c-0.3,0.4-0.6,0.6-0.8,0.6c-0.2,0-0.3-0.1-0.3-0.3c0,0,0-0.2,0-0.5v-5.4h-1.3v5.8
			c0,0.5,0,0.9,0.1,1.1c0.1,0.4,0.4,0.5,0.9,0.5c0.5,0,1-0.3,1.5-0.9v0.8H19v-7.3h-1.3V28.4z"/>
		<path class="st0" d="M18.9,16c0.4,0,0.6-0.3,0.6-1v-3.1c0-0.7-0.2-1-0.6-1c-0.4,0-0.6,0.3-0.6,1V15C18.2,15.7,18.4,16,18.9,16z"/>
		<path class="st0" d="M19.8,0.5C8.8,0.5,0,9.3,0,20.2S8.8,40,19.8,40s19.8-8.8,19.8-19.8S30.7,0.5,19.8,0.5z M21.9,9.7h1.3v5.5
			c0,0.3,0,0.5,0,0.5c0,0.2,0.1,0.3,0.3,0.3c0.3,0,0.6-0.2,0.9-0.6V9.7h1.3v7.4h-1.3v-0.8c-0.5,0.6-1,0.9-1.5,0.9
			c-0.4,0-0.7-0.2-0.9-0.6c-0.1-0.2-0.1-0.6-0.1-1.1V9.7L21.9,9.7z M16.9,12.2c0-0.8,0.1-1.4,0.4-1.7c0.4-0.5,0.9-0.8,1.6-0.8
			c0.7,0,1.2,0.3,1.6,0.8c0.3,0.4,0.4,1,0.4,1.7v2.6c0,0.8-0.1,1.4-0.4,1.7c-0.4,0.5-0.9,0.8-1.6,0.8c-0.7,0-1.2-0.3-1.6-0.8
			c-0.3-0.4-0.4-1-0.4-1.7V12.2z M13.3,7.2l1.1,3.9l1-3.9h1.5l-1.8,5.9v4h-1.5v-4c-0.1-0.7-0.4-1.8-0.9-3.2c-0.3-0.9-0.6-1.9-1-2.8
			C11.7,7.2,13.3,7.2,13.3,7.2z M30.4,30.8c-0.3,1.2-1.2,2-2.4,2.2c-2.7,0.3-5.5,0.3-8.3,0.3c-2.8,0-5.5,0-8.3-0.3
			c-1.2-0.1-2.1-1-2.4-2.2c-0.4-1.7-0.4-3.5-0.4-5.2s0-3.5,0.4-5.2c0.3-1.2,1.2-2,2.4-2.2c2.7-0.3,5.5-0.3,8.3-0.3
			c2.8,0,5.5,0,8.3,0.3c1.2,0.1,2.1,1,2.4,2.2c0.4,1.7,0.4,3.5,0.4,5.2S30.8,29.2,30.4,30.8z"/>
		<path class="st0" d="M27.1,22.7c-0.7,0-1.2,0.3-1.6,0.8c-0.3,0.4-0.4,0.9-0.4,1.7v2.6c0,0.8,0.1,1.4,0.4,1.7
			c0.4,0.5,0.9,0.8,1.6,0.8c0.7,0,1.2-0.3,1.6-0.8c0.2-0.2,0.3-0.5,0.3-0.8c0-0.1,0-0.4,0-0.9v-0.2h-1.4c0,0.5,0,0.8,0,0.9
			c-0.1,0.4-0.3,0.5-0.6,0.5c-0.5,0-0.7-0.3-0.7-1v-1.3h2.7v-1.5c0-0.8-0.1-1.4-0.4-1.7C28.3,23,27.8,22.7,27.1,22.7z M27.8,25.6
			h-1.3V25c0-0.7,0.2-1,0.7-1c0.4,0,0.7,0.3,0.7,1V25.6z"/>
	</g>
</g>
</svg>
